Version = 2.0
File Name = D:/RB_ARIS_Files/ARIS_2019_07_06/Porcupine_RB_2019-07-06_134750.aris
Total Number Of Marks = 0
Total Time = 12.150 minutes
Date = 07/06/2019
Start Time = 06:47:50

Sample	Ping	Time	Range	Amplitude	XAngle	YAngle	Direction	Length	Area	Operator
