Version = 2.0
File Name = D:/RB_ARIS_Files/ARIS_2019_07_06/Porcupine_RB_2019-07-06_023000.aris
Total Number Of Marks = 0
Total Time = 29.967 minutes
Date = 07/05/2019
Start Time = 19:30:01

Sample	Ping	Time	Range	Amplitude	XAngle	YAngle	Direction	Length	Area	Operator
