Version = 2.0
File Name = D:/RB_ARIS_Files/ARIS_2019_07_06/Porcupine_RB_2019-07-06_080000.aris
Total Number Of Marks = 3
Total Time = 29.967 minutes
Date = 07/06/2019
Start Time = 01:00:02

Sample	Ping	Time	Range	Amplitude	XAngle	YAngle	Direction	Length	Area	Operator
649	7845	17.520	 16.41	-24.012	-5.40	 0.00	-1.000	 0.000	  0.00	KJW
380	10785	24.086	 10.46	-5.862	-1.94	 0.00	0.000	 0.654	  0.00	KJW
386	10786	24.089	 10.60	-28.691	-5.40	 0.00	1.000	 0.000	  0.00	KJW
