Version = 2.0
File Name = Z:/RB_ARIS_Files/ARIS_2019_07_04/Porcupine_RB_2019-07-04_063000.aris
Total Number Of Marks = 2
Total Time = 29.967 minutes
Date = 07/03/2019
Start Time = 23:30:14

Sample	Ping	Time	Range	Amplitude	XAngle	YAngle	Direction	Length	Area	Operator
517	4587	12.988	 31.45	-8.129	 1.12	 0.00	0.000	 1.071	  0.00	KJW
515	4604	13.037	 31.40	-11.813	 0.60	 0.00	1.000	 0.000	  0.00	KJW
