Version = 2.0
File Name = Z:/RB_ARIS_Files/ARIS_2019_07_02/Porcupine_RB_2019-07-02_103000.aris
Total Number Of Marks = 0
Total Time = 29.983 minutes
Date = 07/02/2019
Start Time = 03:30:07

Sample	Ping	Time	Range	Amplitude	XAngle	YAngle	Direction	Length	Area	Operator
