Version = 2.0
File Name = D:/RB_ARIS_Files/ARIS_2019_07_05/Porcupine_RB_2019-07-05_143000.aris
Total Number Of Marks = 0
Total Time = 29.967 minutes
Date = 07/05/2019
Start Time = 07:30:19

Sample	Ping	Time	Range	Amplitude	XAngle	YAngle	Direction	Length	Area	Operator
