Version = 2.0
File Name = Z:/RB_ARIS_Files/ARIS_2019_07_01/Porcupine_RB_2019-07-01_110000.aris
Total Number Of Marks = 1
Total Time = 29.983 minutes
Date = 07/01/2019
Start Time = 04:00:03

Sample	Ping	Time	Range	Amplitude	XAngle	YAngle	Direction	Length	Area	Operator
559	1165	 1.743	 11.43	-4.715	-0.60	 0.00	1.000	 0.000	  0.00	KJW
