Version = 2.0
File Name = D:/RB_ARIS_Files/ARIS_2019_07_07/Porcupine_RB_2019-07-07_040000.aris
Total Number Of Marks = 0
Total Time = 29.967 minutes
Date = 07/06/2019
Start Time = 21:00:03

Sample	Ping	Time	Range	Amplitude	XAngle	YAngle	Direction	Length	Area	Operator
