"","bank","Date","date_hour","scan_range","operator","mins","Net_Upstream_Marks","Passage_Estimate"
"LB Inshore.1","LB",2019-07-01,"2019-07-01 17:00:00","Inshore",NA,20.35,0,0
"LB Inshore.2","LB",2019-07-01,"2019-07-01 18:00:00","Inshore",NA,29.967,0,0
"LB Inshore.3","LB",2019-07-01,"2019-07-01 19:00:00","Inshore","KJW",30,2,4
"LB Inshore.4","LB",2019-07-01,"2019-07-01 20:00:00","Inshore",NA,29.967,0,0
"LB Inshore.5","LB",2019-07-01,"2019-07-01 21:00:00","Inshore",NA,29.967,0,0
"LB Inshore.6","LB",2019-07-01,"2019-07-01 22:00:00","Inshore",NA,29.983,0,0
"LB Inshore.7","LB",2019-07-01,"2019-07-01 23:00:00","Inshore",NA,29.983,0,0
"LB Inshore.8","LB",2019-07-02,"2019-07-02 00:00:00","Inshore",NA,29.983,0,0
"LB Inshore.9","LB",2019-07-02,"2019-07-02 01:00:00","Inshore",NA,29.983,0,0
"LB Inshore.10","LB",2019-07-02,"2019-07-02 02:00:00","Inshore",NA,29.967,0,0
"LB Inshore.11","LB",2019-07-02,"2019-07-02 03:00:00","Inshore",NA,29.967,0,0
"LB Inshore.12","LB",2019-07-02,"2019-07-02 04:00:00","Inshore",NA,29.967,0,0
"LB Inshore.13","LB",2019-07-02,"2019-07-02 05:00:00","Inshore",NA,29.983,0,0
"LB Inshore.14","LB",2019-07-02,"2019-07-02 06:00:00","Inshore","LNN",29.967,-1,-2
"LB Inshore.15","LB",2019-07-02,"2019-07-02 07:00:00","Inshore","LNN",29.983,2,4
"LB Inshore.16","LB",2019-07-02,"2019-07-02 08:00:00","Inshore",NA,29.983,0,0
"LB Inshore.17","LB",2019-07-02,"2019-07-02 09:00:00","Inshore",NA,29.983,0,0
"LB Inshore.18","LB",2019-07-02,"2019-07-02 10:00:00","Inshore",NA,29.983,0,0
"LB Inshore.19","LB",2019-07-02,"2019-07-02 11:00:00","Inshore",NA,29.967,0,0
"LB Inshore.20","LB",2019-07-02,"2019-07-02 12:00:00","Inshore",NA,29.967,0,0
"LB Inshore.21","LB",2019-07-02,"2019-07-02 13:00:00","Inshore","LNN",29.967,-1,-2
"LB Inshore.22","LB",2019-07-02,"2019-07-02 14:00:00","Inshore",NA,29.967,0,0
"LB Inshore.23","LB",2019-07-02,"2019-07-02 15:00:00","Inshore",NA,NA,NA,0.409712761000964
"LB Inshore.24","LB",2019-07-02,"2019-07-02 16:00:00","Inshore",NA,NA,NA,0.445577560781864
"LB Inshore.25","LB",2019-07-02,"2019-07-02 17:00:00","Inshore","LNN",29.983,1,2
"LB Inshore.26","LB",2019-07-02,"2019-07-02 18:00:00","Inshore",NA,29.967,0,0
"LB Inshore.27","LB",2019-07-02,"2019-07-02 19:00:00","Inshore",NA,29.967,0,0
"LB Inshore.28","LB",2019-07-02,"2019-07-02 20:00:00","Inshore","LNN",29.967,2,4
"LB Inshore.29","LB",2019-07-02,"2019-07-02 21:00:00","Inshore",NA,29.967,0,0
"LB Inshore.30","LB",2019-07-02,"2019-07-02 22:00:00","Inshore",NA,29.967,0,0
"LB Inshore.31","LB",2019-07-02,"2019-07-02 23:00:00","Inshore",NA,29.967,0,0
"LB Inshore.32","LB",2019-07-03,"2019-07-03 00:00:00","Inshore","LNN",29.983,2,4
"LB Inshore.33","LB",2019-07-03,"2019-07-03 01:00:00","Inshore","LNN",29.983,2,4
"LB Inshore.34","LB",2019-07-03,"2019-07-03 02:00:00","Inshore",NA,29.967,0,0
"LB Inshore.35","LB",2019-07-03,"2019-07-03 03:00:00","Inshore",NA,29.983,0,0
"LB Inshore.36","LB",2019-07-03,"2019-07-03 04:00:00","Inshore","LNN",29.967,1,2
"LB Inshore.37","LB",2019-07-03,"2019-07-03 05:00:00","Inshore","LNN",29.967,1,2
"LB Inshore.38","LB",2019-07-03,"2019-07-03 06:00:00","Inshore",NA,29.967,0,0
"LB Inshore.39","LB",2019-07-03,"2019-07-03 07:00:00","Inshore",NA,29.95,0,0
"LB Inshore.40","LB",2019-07-03,"2019-07-03 08:00:00","Inshore",NA,29.983,0,0
"LB Inshore.41","LB",2019-07-03,"2019-07-03 09:00:00","Inshore",NA,29.983,0,0
"LB Inshore.42","LB",2019-07-03,"2019-07-03 10:00:00","Inshore",NA,29.967,0,0
"LB Inshore.43","LB",2019-07-03,"2019-07-03 11:00:00","Inshore",NA,29.983,0,0
"LB Inshore.44","LB",2019-07-03,"2019-07-03 12:00:00","Inshore",NA,29.983,0,0
"LB Inshore.45","LB",2019-07-03,"2019-07-03 13:00:00","Inshore","LNN",29.967,1,2
"LB Inshore.46","LB",2019-07-03,"2019-07-03 14:00:00","Inshore",NA,29.017,0,0
"LB Inshore.47","LB",2019-07-03,"2019-07-03 15:00:00","Inshore",NA,29.967,0,0
"LB Inshore.48","LB",2019-07-03,"2019-07-03 16:00:00","Inshore",NA,29.983,0,0
"LB Inshore.49","LB",2019-07-03,"2019-07-03 17:00:00","Inshore",NA,29.983,0,0
"LB Inshore.50","LB",2019-07-03,"2019-07-03 18:00:00","Inshore",NA,29.983,0,0
"LB Inshore.51","LB",2019-07-03,"2019-07-03 19:00:00","Inshore",NA,29.983,0,0
"LB Inshore.52","LB",2019-07-03,"2019-07-03 20:00:00","Inshore",NA,29.967,0,0
"LB Inshore.53","LB",2019-07-03,"2019-07-03 21:00:00","Inshore",NA,29.967,0,0
"LB Inshore.54","LB",2019-07-03,"2019-07-03 22:00:00","Inshore",NA,29.967,0,0
"LB Inshore.55","LB",2019-07-03,"2019-07-03 23:00:00","Inshore",NA,29.967,0,0
"LB Inshore.56","LB",2019-07-04,"2019-07-04 00:00:00","Inshore",NA,29.967,0,0
"LB Inshore.57","LB",2019-07-04,"2019-07-04 01:00:00","Inshore",NA,29.983,0,0
"LB Inshore.58","LB",2019-07-04,"2019-07-04 02:00:00","Inshore",NA,29.983,0,0
"LB Inshore.59","LB",2019-07-04,"2019-07-04 03:00:00","Inshore",NA,29.983,0,0
"LB Inshore.60","LB",2019-07-04,"2019-07-04 04:00:00","Inshore",NA,29.967,0,0
"LB Inshore.61","LB",2019-07-04,"2019-07-04 05:00:00","Inshore",NA,29.967,0,0
"LB Inshore.62","LB",2019-07-04,"2019-07-04 06:00:00","Inshore",NA,29.967,0,0
"LB Inshore.63","LB",2019-07-04,"2019-07-04 07:00:00","Inshore",NA,29.967,0,0
"LB Inshore.64","LB",2019-07-04,"2019-07-04 08:00:00","Inshore",NA,29.967,0,0
"LB Inshore.65","LB",2019-07-04,"2019-07-04 09:00:00","Inshore",NA,29.983,0,0
"LB Inshore.66","LB",2019-07-04,"2019-07-04 10:00:00","Inshore",NA,29.983,0,0
"LB Inshore.67","LB",2019-07-04,"2019-07-04 11:00:00","Inshore",NA,24.417,0,0
"LB Inshore.68","LB",2019-07-04,"2019-07-04 12:00:00","Inshore",NA,29.967,0,0
"LB Inshore.69","LB",2019-07-04,"2019-07-04 13:00:00","Inshore",NA,29.983,0,0
"LB Inshore.70","LB",2019-07-04,"2019-07-04 14:00:00","Inshore",NA,NA,NA,0.114677134316555
"LB Inshore.71","LB",2019-07-04,"2019-07-04 15:00:00","Inshore",NA,16.85,0,0
"LB Inshore.72","LB",2019-07-04,"2019-07-04 16:00:00","Inshore",NA,29.967,0,0
"LB Inshore.73","LB",2019-07-04,"2019-07-04 17:00:00","Inshore",NA,29.983,0,0
"LB Inshore.74","LB",2019-07-04,"2019-07-04 18:00:00","Inshore",NA,29.983,0,0
"LB Inshore.75","LB",2019-07-04,"2019-07-04 19:00:00","Inshore",NA,24.7,0,0
"LB Inshore.76","LB",2019-07-04,"2019-07-04 20:00:00","Inshore",NA,29.983,0,0
"LB Inshore.77","LB",2019-07-04,"2019-07-04 21:00:00","Inshore",NA,29.983,0,0
"LB Inshore.78","LB",2019-07-04,"2019-07-04 22:00:00","Inshore",NA,29.983,0,0
"LB Inshore.79","LB",2019-07-04,"2019-07-04 23:00:00","Inshore",NA,29.967,0,0
"LB Inshore.80","LB",2019-07-05,"2019-07-05 00:00:00","Inshore",NA,29.967,0,0
"LB Inshore.81","LB",2019-07-05,"2019-07-05 01:00:00","Inshore",NA,29.967,0,0
"LB Inshore.82","LB",2019-07-05,"2019-07-05 02:00:00","Inshore",NA,29.967,0,0
"LB Inshore.83","LB",2019-07-05,"2019-07-05 03:00:00","Inshore",NA,29.967,0,0
"LB Inshore.84","LB",2019-07-05,"2019-07-05 04:00:00","Inshore","LNN",29.983,1,2
"LB Inshore.85","LB",2019-07-05,"2019-07-05 05:00:00","Inshore",NA,29.983,0,0
"LB Inshore.86","LB",2019-07-05,"2019-07-05 06:00:00","Inshore",NA,29.983,0,0
"LB Inshore.87","LB",2019-07-05,"2019-07-05 07:00:00","Inshore",NA,29.983,0,0
"LB Inshore.88","LB",2019-07-05,"2019-07-05 08:00:00","Inshore",NA,29.967,0,0
"LB Inshore.89","LB",2019-07-05,"2019-07-05 09:00:00","Inshore",NA,29.967,0,0
"LB Inshore.90","LB",2019-07-05,"2019-07-05 10:00:00","Inshore",NA,29.967,0,0
"LB Inshore.91","LB",2019-07-05,"2019-07-05 11:00:00","Inshore",NA,29.983,0,0
"LB Inshore.92","LB",2019-07-05,"2019-07-05 12:00:00","Inshore",NA,29.983,0,0
"LB Inshore.93","LB",2019-07-05,"2019-07-05 13:00:00","Inshore",NA,29.983,0,0
"LB Inshore.94","LB",2019-07-05,"2019-07-05 14:00:00","Inshore",NA,29.983,0,0
"LB Inshore.95","LB",2019-07-05,"2019-07-05 15:00:00","Inshore","LNN",29.983,1,2
"LB Inshore.96","LB",2019-07-05,"2019-07-05 16:00:00","Inshore","LNN",29.967,1,2
"LB Inshore.97","LB",2019-07-05,"2019-07-05 17:00:00","Inshore",NA,NA,NA,0.360558332717288
"LB Inshore.98","LB",2019-07-05,"2019-07-05 18:00:00","Inshore",NA,29.983,0,0
"LB Inshore.99","LB",2019-07-05,"2019-07-05 19:00:00","Inshore","LNN",29.983,1,2
"LB Inshore.100","LB",2019-07-05,"2019-07-05 20:00:00","Inshore",NA,26.633,0,0
"LB Inshore.101","LB",2019-07-05,"2019-07-05 21:00:00","Inshore",NA,29.967,0,0
"LB Inshore.102","LB",2019-07-05,"2019-07-05 22:00:00","Inshore",NA,29.967,0,0
"LB Inshore.103","LB",2019-07-05,"2019-07-05 23:00:00","Inshore",NA,29.983,0,0
"LB Inshore.104","LB",2019-07-06,"2019-07-06 00:00:00","Inshore",NA,29.967,0,0
"LB Inshore.105","LB",2019-07-06,"2019-07-06 01:00:00","Inshore",NA,29.983,0,0
"LB Inshore.106","LB",2019-07-06,"2019-07-06 02:00:00","Inshore",NA,29.983,0,0
"LB Inshore.107","LB",2019-07-06,"2019-07-06 03:00:00","Inshore",NA,29.983,0,0
"LB Inshore.108","LB",2019-07-06,"2019-07-06 04:00:00","Inshore",NA,29.983,0,0
"LB Inshore.109","LB",2019-07-06,"2019-07-06 05:00:00","Inshore","KJW",29.967,1,2
"LB Inshore.110","LB",2019-07-06,"2019-07-06 06:00:00","Inshore","KJW",29.967,1,2
"LB Inshore.111","LB",2019-07-06,"2019-07-06 07:00:00","Inshore",NA,29.967,0,0
"LB Inshore.112","LB",2019-07-06,"2019-07-06 08:00:00","Inshore","KJW",29.983,1,2
"LB Inshore.113","LB",2019-07-06,"2019-07-06 09:00:00","Inshore",NA,NA,NA,0.331780273613437
"LB Inshore.114","LB",2019-07-06,"2019-07-06 10:00:00","Inshore",NA,29.983,0,0
"LB Inshore.115","LB",2019-07-06,"2019-07-06 11:00:00","Inshore",NA,NA,NA,0.295271608550777
"LB Inshore.116","LB",2019-07-06,"2019-07-06 12:00:00","Inshore",NA,29.967,0,0
"LB Inshore.117","LB",2019-07-06,"2019-07-06 13:00:00","Inshore",NA,26.167,0,0
"LB Inshore.118","LB",2019-07-06,"2019-07-06 14:00:00","Inshore",NA,26.95,0,0
"LB Inshore.119","LB",2019-07-06,"2019-07-06 15:00:00","Inshore",NA,29.983,0,0
"LB Inshore.120","LB",2019-07-06,"2019-07-06 16:00:00","Inshore",NA,29.967,0,0
"LB Inshore.121","LB",2019-07-06,"2019-07-06 17:00:00","Inshore",NA,29.967,0,0
"LB Inshore.122","LB",2019-07-06,"2019-07-06 18:00:00","Inshore",NA,29.983,0,0
"LB Inshore.123","LB",2019-07-06,"2019-07-06 19:00:00","Inshore",NA,29.983,0,0
"LB Inshore.124","LB",2019-07-06,"2019-07-06 20:00:00","Inshore",NA,29.983,0,0
"LB Inshore.125","LB",2019-07-06,"2019-07-06 21:00:00","Inshore",NA,29.983,0,0
"LB Inshore.126","LB",2019-07-06,"2019-07-06 22:00:00","Inshore","KJW",29.983,-1,-2
"LB Inshore.127","LB",2019-07-06,"2019-07-06 23:00:00","Inshore",NA,29.983,0,0
"LB Inshore.128","LB",2019-07-07,"2019-07-07 00:00:00","Inshore",NA,29.967,0,0
"LB Inshore.129","LB",2019-07-07,"2019-07-07 01:00:00","Inshore",NA,29.967,0,0
"LB Inshore.130","LB",2019-07-07,"2019-07-07 02:00:00","Inshore",NA,29.983,0,0
"LB Inshore.131","LB",2019-07-07,"2019-07-07 03:00:00","Inshore","LNN",29.983,1,2
"LB Inshore.132","LB",2019-07-07,"2019-07-07 04:00:00","Inshore",NA,29.983,0,0
"LB Inshore.133","LB",2019-07-07,"2019-07-07 05:00:00","Inshore",NA,29.983,0,0
"LB Inshore.134","LB",2019-07-07,"2019-07-07 06:00:00","Inshore","LNN",29.983,1,2
"LB Inshore.135","LB",2019-07-07,"2019-07-07 07:00:00","Inshore","LNN",29.983,1,2
"LB Inshore.136","LB",2019-07-07,"2019-07-07 08:00:00","Inshore",NA,29.983,0,0
"LB Inshore.137","LB",2019-07-07,"2019-07-07 09:00:00","Inshore",NA,29.967,0,0
"LB Inshore.138","LB",2019-07-07,"2019-07-07 10:00:00","Inshore",NA,29.467,0,0
"LB Inshore.139","LB",2019-07-07,"2019-07-07 11:00:00","Inshore",NA,29.983,0,0
"LB Inshore.140","LB",2019-07-07,"2019-07-07 12:00:00","Inshore",NA,29.967,0,0
"LB Inshore.141","LB",2019-07-07,"2019-07-07 13:00:00","Inshore",NA,29.967,0,0
"LB Inshore.142","LB",2019-07-07,"2019-07-07 14:00:00","Inshore",NA,29.967,0,0
"LB Inshore.143","LB",2019-07-07,"2019-07-07 15:00:00","Inshore",NA,29.983,0,0
"LB Inshore.144","LB",2019-07-07,"2019-07-07 16:00:00","Inshore",NA,NA,NA,0.268626855024516
"LB Inshore.145","LB",2019-07-07,"2019-07-07 17:00:00","Inshore",NA,NA,NA,0.271921930348565
"LB Inshore.146","LB",2019-07-07,"2019-07-07 18:00:00","Inshore",NA,NA,NA,0.275217005672614
"LB Inshore.147","LB",2019-07-07,"2019-07-07 19:00:00","Inshore",NA,NA,NA,0.278512080996662
"LB Inshore.148","LB",2019-07-07,"2019-07-07 20:00:00","Inshore",NA,NA,NA,0.281807156320711
"LB Inshore.149","LB",2019-07-07,"2019-07-07 21:00:00","Inshore",NA,NA,NA,0.28510223164476
"LB Inshore.150","LB",2019-07-07,"2019-07-07 22:00:00","Inshore",NA,NA,NA,0.288397306968808
"LB Inshore.151","LB",2019-07-07,"2019-07-07 23:00:00","Inshore",NA,NA,NA,0.291692382292857
"LB Inshore.152","LB",2019-07-08,"2019-07-08 00:00:00","Inshore",NA,NA,NA,0.294987457616906
"LB Inshore.153","LB",2019-07-08,"2019-07-08 01:00:00","Inshore",NA,NA,NA,0.298282532940955
"LB Inshore.154","LB",2019-07-08,"2019-07-08 02:00:00","Inshore",NA,NA,NA,0.301577608265003
"LB Inshore.155","LB",2019-07-08,"2019-07-08 03:00:00","Inshore",NA,NA,NA,0.304872683589052
"LB Inshore.156","LB",2019-07-08,"2019-07-08 04:00:00","Inshore",NA,NA,NA,0.308167758913101
"LB Inshore.157","LB",2019-07-08,"2019-07-08 05:00:00","Inshore",NA,NA,NA,0.311462834237149
"LB Inshore.158","LB",2019-07-08,"2019-07-08 06:00:00","Inshore",NA,NA,NA,0.314757909561198
"LB Inshore.159","LB",2019-07-08,"2019-07-08 07:00:00","Inshore",NA,NA,NA,0.318052984885247
"LB Inshore.160","LB",2019-07-08,"2019-07-08 08:00:00","Inshore",NA,NA,NA,0.321348060209295
"LB Inshore.161","LB",2019-07-08,"2019-07-08 09:00:00","Inshore",NA,NA,NA,0.324643135533344
"LB Inshore.162","LB",2019-07-08,"2019-07-08 10:00:00","Inshore",NA,NA,NA,0.327938210857393
"LB Inshore.163","LB",2019-07-08,"2019-07-08 11:00:00","Inshore",NA,NA,NA,0.331233286181441
"LB Inshore.164","LB",2019-07-08,"2019-07-08 12:00:00","Inshore",NA,NA,NA,0.33452836150549
"LB Inshore.165","LB",2019-07-08,"2019-07-08 13:00:00","Inshore",NA,NA,NA,0.337823436829539
"LB Inshore.166","LB",2019-07-08,"2019-07-08 14:00:00","Inshore",NA,NA,NA,0.341118512153587
"LB Inshore.167","LB",2019-07-08,"2019-07-08 15:00:00","Inshore",NA,NA,NA,0.344413587477636
"LB Inshore.168","LB",2019-07-08,"2019-07-08 16:00:00","Inshore",NA,NA,NA,0.347708662801685
"LB Inshore.169","LB",2019-07-08,"2019-07-08 17:00:00","Inshore",NA,NA,NA,0.351003738125733
"LB Inshore.170","LB",2019-07-08,"2019-07-08 18:00:00","Inshore",NA,NA,NA,0.354298813449782
"LB Inshore.171","LB",2019-07-08,"2019-07-08 19:00:00","Inshore",NA,29.983,0,0
"LB Inshore.172","LB",2019-07-08,"2019-07-08 20:00:00","Inshore",NA,29.95,0,0
"LB Inshore.173","LB",2019-07-08,"2019-07-08 21:00:00","Inshore",NA,29.967,0,0
"LB Inshore.174","LB",2019-07-08,"2019-07-08 22:00:00","Inshore",NA,29.967,0,0
"LB Inshore.175","LB",2019-07-08,"2019-07-08 23:00:00","Inshore","CLW",29.967,1,2
"LB Offshore.1","LB",2019-07-01,"2019-07-01 17:00:00","Offshore",NA,29.967,0,0
"LB Offshore.2","LB",2019-07-01,"2019-07-01 18:00:00","Offshore",NA,29.967,0,0
"LB Offshore.3","LB",2019-07-01,"2019-07-01 19:00:00","Offshore",NA,NA,NA,0.00160527081180173
"LB Offshore.4","LB",2019-07-01,"2019-07-01 20:00:00","Offshore",NA,29.967,0,0
"LB Offshore.5","LB",2019-07-01,"2019-07-01 21:00:00","Offshore",NA,29.967,0,0
"LB Offshore.6","LB",2019-07-01,"2019-07-01 22:00:00","Offshore",NA,29.983,0,0
"LB Offshore.7","LB",2019-07-01,"2019-07-01 23:00:00","Offshore",NA,29.983,0,0
"LB Offshore.8","LB",2019-07-02,"2019-07-02 00:00:00","Offshore",NA,29.983,0,0
"LB Offshore.9","LB",2019-07-02,"2019-07-02 01:00:00","Offshore",NA,29.983,0,0
"LB Offshore.10","LB",2019-07-02,"2019-07-02 02:00:00","Offshore",NA,29.967,0,0
"LB Offshore.11","LB",2019-07-02,"2019-07-02 03:00:00","Offshore",NA,29.967,0,0
"LB Offshore.12","LB",2019-07-02,"2019-07-02 04:00:00","Offshore",NA,29.967,0,0
"LB Offshore.13","LB",2019-07-02,"2019-07-02 05:00:00","Offshore",NA,29.967,0,0
"LB Offshore.14","LB",2019-07-02,"2019-07-02 06:00:00","Offshore",NA,29.983,0,0
"LB Offshore.15","LB",2019-07-02,"2019-07-02 07:00:00","Offshore",NA,29.983,0,0
"LB Offshore.16","LB",2019-07-02,"2019-07-02 08:00:00","Offshore",NA,29.967,0,0
"LB Offshore.17","LB",2019-07-02,"2019-07-02 09:00:00","Offshore",NA,29.983,0,0
"LB Offshore.18","LB",2019-07-02,"2019-07-02 10:00:00","Offshore",NA,29.967,0,0
"LB Offshore.19","LB",2019-07-02,"2019-07-02 11:00:00","Offshore",NA,29.967,0,0
"LB Offshore.20","LB",2019-07-02,"2019-07-02 12:00:00","Offshore",NA,29.967,0,0
"LB Offshore.21","LB",2019-07-02,"2019-07-02 13:00:00","Offshore",NA,29.967,0,0
"LB Offshore.22","LB",2019-07-02,"2019-07-02 14:00:00","Offshore",NA,NA,NA,0.0102927910526226
"LB Offshore.23","LB",2019-07-02,"2019-07-02 15:00:00","Offshore",NA,NA,NA,0.0107593407367179
"LB Offshore.24","LB",2019-07-02,"2019-07-02 16:00:00","Offshore",NA,29.967,0,0
"LB Offshore.25","LB",2019-07-02,"2019-07-02 17:00:00","Offshore",NA,29.967,0,0
"LB Offshore.26","LB",2019-07-02,"2019-07-02 18:00:00","Offshore",NA,29.967,0,0
"LB Offshore.27","LB",2019-07-02,"2019-07-02 19:00:00","Offshore",NA,29.967,0,0
"LB Offshore.28","LB",2019-07-02,"2019-07-02 20:00:00","Offshore",NA,29.967,0,0
"LB Offshore.29","LB",2019-07-02,"2019-07-02 21:00:00","Offshore",NA,29.967,0,0
"LB Offshore.30","LB",2019-07-02,"2019-07-02 22:00:00","Offshore",NA,29.967,0,0
"LB Offshore.31","LB",2019-07-02,"2019-07-02 23:00:00","Offshore",NA,29.983,0,0
"LB Offshore.32","LB",2019-07-03,"2019-07-03 00:00:00","Offshore",NA,29.983,0,0
"LB Offshore.33","LB",2019-07-03,"2019-07-03 01:00:00","Offshore",NA,29.983,0,0
"LB Offshore.34","LB",2019-07-03,"2019-07-03 02:00:00","Offshore","LNN",29.967,1,2
"LB Offshore.35","LB",2019-07-03,"2019-07-03 03:00:00","Offshore",NA,29.967,0,0
"LB Offshore.36","LB",2019-07-03,"2019-07-03 04:00:00","Offshore",NA,29.967,0,0
"LB Offshore.37","LB",2019-07-03,"2019-07-03 05:00:00","Offshore",NA,29.967,0,0
"LB Offshore.38","LB",2019-07-03,"2019-07-03 06:00:00","Offshore",NA,29.983,0,0
"LB Offshore.39","LB",2019-07-03,"2019-07-03 07:00:00","Offshore",NA,29.967,0,0
"LB Offshore.40","LB",2019-07-03,"2019-07-03 08:00:00","Offshore",NA,29.967,0,0
"LB Offshore.41","LB",2019-07-03,"2019-07-03 09:00:00","Offshore",NA,29.983,0,0
"LB Offshore.42","LB",2019-07-03,"2019-07-03 10:00:00","Offshore",NA,29.983,0,0
"LB Offshore.43","LB",2019-07-03,"2019-07-03 11:00:00","Offshore",NA,29.967,0,0
"LB Offshore.44","LB",2019-07-03,"2019-07-03 12:00:00","Offshore",NA,29.967,0,0
"LB Offshore.45","LB",2019-07-03,"2019-07-03 13:00:00","Offshore",NA,29.967,0,0
"LB Offshore.46","LB",2019-07-03,"2019-07-03 14:00:00","Offshore",NA,28.45,0,0
"LB Offshore.47","LB",2019-07-03,"2019-07-03 15:00:00","Offshore",NA,29.983,0,0
"LB Offshore.48","LB",2019-07-03,"2019-07-03 16:00:00","Offshore",NA,29.983,0,0
"LB Offshore.49","LB",2019-07-03,"2019-07-03 17:00:00","Offshore",NA,29.983,0,0
"LB Offshore.50","LB",2019-07-03,"2019-07-03 18:00:00","Offshore",NA,29.983,0,0
"LB Offshore.51","LB",2019-07-03,"2019-07-03 19:00:00","Offshore",NA,29.983,0,0
"LB Offshore.52","LB",2019-07-03,"2019-07-03 20:00:00","Offshore",NA,29.967,0,0
"LB Offshore.53","LB",2019-07-03,"2019-07-03 21:00:00","Offshore",NA,29.967,0,0
"LB Offshore.54","LB",2019-07-03,"2019-07-03 22:00:00","Offshore",NA,29.967,0,0
"LB Offshore.55","LB",2019-07-03,"2019-07-03 23:00:00","Offshore",NA,29.967,0,0
"LB Offshore.56","LB",2019-07-04,"2019-07-04 00:00:00","Offshore",NA,29.983,0,0
"LB Offshore.57","LB",2019-07-04,"2019-07-04 01:00:00","Offshore",NA,29.983,0,0
"LB Offshore.58","LB",2019-07-04,"2019-07-04 02:00:00","Offshore",NA,29.983,0,0
"LB Offshore.59","LB",2019-07-04,"2019-07-04 03:00:00","Offshore",NA,29.983,0,0
"LB Offshore.60","LB",2019-07-04,"2019-07-04 04:00:00","Offshore",NA,29.967,0,0
"LB Offshore.61","LB",2019-07-04,"2019-07-04 05:00:00","Offshore",NA,29.967,0,0
"LB Offshore.62","LB",2019-07-04,"2019-07-04 06:00:00","Offshore",NA,29.967,0,0
"LB Offshore.63","LB",2019-07-04,"2019-07-04 07:00:00","Offshore",NA,29.967,0,0
"LB Offshore.64","LB",2019-07-04,"2019-07-04 08:00:00","Offshore",NA,29.983,0,0
"LB Offshore.65","LB",2019-07-04,"2019-07-04 09:00:00","Offshore",NA,29.983,0,0
"LB Offshore.66","LB",2019-07-04,"2019-07-04 10:00:00","Offshore",NA,29.983,0,0
"LB Offshore.67","LB",2019-07-04,"2019-07-04 11:00:00","Offshore",NA,29.967,0,0
"LB Offshore.68","LB",2019-07-04,"2019-07-04 12:00:00","Offshore",NA,29.967,0,0
"LB Offshore.69","LB",2019-07-04,"2019-07-04 13:00:00","Offshore",NA,NA,NA,0.0246259298626667
"LB Offshore.70","LB",2019-07-04,"2019-07-04 14:00:00","Offshore",NA,NA,NA,0.0249247038442482
"LB Offshore.71","LB",2019-07-04,"2019-07-04 15:00:00","Offshore",NA,29.967,0,0
"LB Offshore.72","LB",2019-07-04,"2019-07-04 16:00:00","Offshore",NA,29.967,0,0
"LB Offshore.73","LB",2019-07-04,"2019-07-04 17:00:00","Offshore",NA,29.967,0,0
"LB Offshore.74","LB",2019-07-04,"2019-07-04 18:00:00","Offshore",NA,29.983,0,0
"LB Offshore.75","LB",2019-07-04,"2019-07-04 19:00:00","Offshore",NA,29.967,0,0
"LB Offshore.76","LB",2019-07-04,"2019-07-04 20:00:00","Offshore",NA,29.983,0,0
"LB Offshore.77","LB",2019-07-04,"2019-07-04 21:00:00","Offshore","KJW",29.983,1,2
"LB Offshore.78","LB",2019-07-04,"2019-07-04 22:00:00","Offshore",NA,29.967,0,0
"LB Offshore.79","LB",2019-07-04,"2019-07-04 23:00:00","Offshore",NA,29.967,0,0
"LB Offshore.80","LB",2019-07-05,"2019-07-05 00:00:00","Offshore",NA,29.983,0,0
"LB Offshore.81","LB",2019-07-05,"2019-07-05 01:00:00","Offshore",NA,29.967,0,0
"LB Offshore.82","LB",2019-07-05,"2019-07-05 02:00:00","Offshore",NA,29.967,0,0
"LB Offshore.83","LB",2019-07-05,"2019-07-05 03:00:00","Offshore",NA,29.967,0,0
"LB Offshore.84","LB",2019-07-05,"2019-07-05 04:00:00","Offshore",NA,29.983,0,0
"LB Offshore.85","LB",2019-07-05,"2019-07-05 05:00:00","Offshore",NA,29.983,0,0
"LB Offshore.86","LB",2019-07-05,"2019-07-05 06:00:00","Offshore",NA,29.983,0,0
"LB Offshore.87","LB",2019-07-05,"2019-07-05 07:00:00","Offshore",NA,29.967,0,0
"LB Offshore.88","LB",2019-07-05,"2019-07-05 08:00:00","Offshore",NA,29.967,0,0
"LB Offshore.89","LB",2019-07-05,"2019-07-05 09:00:00","Offshore",NA,29.967,0,0
"LB Offshore.90","LB",2019-07-05,"2019-07-05 10:00:00","Offshore",NA,29.967,0,0
"LB Offshore.91","LB",2019-07-05,"2019-07-05 11:00:00","Offshore",NA,29.983,0,0
"LB Offshore.92","LB",2019-07-05,"2019-07-05 12:00:00","Offshore",NA,29.967,0,0
"LB Offshore.93","LB",2019-07-05,"2019-07-05 13:00:00","Offshore",NA,29.983,0,0
"LB Offshore.94","LB",2019-07-05,"2019-07-05 14:00:00","Offshore",NA,29.983,0,0
"LB Offshore.95","LB",2019-07-05,"2019-07-05 15:00:00","Offshore",NA,29.983,0,0
"LB Offshore.96","LB",2019-07-05,"2019-07-05 16:00:00","Offshore",NA,29.967,0,0
"LB Offshore.97","LB",2019-07-05,"2019-07-05 17:00:00","Offshore",NA,29.983,0,0
"LB Offshore.98","LB",2019-07-05,"2019-07-05 18:00:00","Offshore",NA,29.983,0,0
"LB Offshore.99","LB",2019-07-05,"2019-07-05 19:00:00","Offshore",NA,27.417,0,0
"LB Offshore.100","LB",2019-07-05,"2019-07-05 20:00:00","Offshore",NA,29.967,0,0
"LB Offshore.101","LB",2019-07-05,"2019-07-05 21:00:00","Offshore",NA,29.967,0,0
"LB Offshore.102","LB",2019-07-05,"2019-07-05 22:00:00","Offshore",NA,29.967,0,0
"LB Offshore.103","LB",2019-07-05,"2019-07-05 23:00:00","Offshore",NA,29.983,0,0
"LB Offshore.104","LB",2019-07-06,"2019-07-06 00:00:00","Offshore",NA,29.983,0,0
"LB Offshore.105","LB",2019-07-06,"2019-07-06 01:00:00","Offshore",NA,29.983,0,0
"LB Offshore.106","LB",2019-07-06,"2019-07-06 02:00:00","Offshore",NA,29.983,0,0
"LB Offshore.107","LB",2019-07-06,"2019-07-06 03:00:00","Offshore",NA,29.983,0,0
"LB Offshore.108","LB",2019-07-06,"2019-07-06 04:00:00","Offshore",NA,29.967,0,0
"LB Offshore.109","LB",2019-07-06,"2019-07-06 05:00:00","Offshore",NA,29.967,0,0
"LB Offshore.110","LB",2019-07-06,"2019-07-06 06:00:00","Offshore",NA,29.967,0,0
"LB Offshore.111","LB",2019-07-06,"2019-07-06 07:00:00","Offshore",NA,29.967,0,0
"LB Offshore.112","LB",2019-07-06,"2019-07-06 08:00:00","Offshore",NA,29.967,0,0
"LB Offshore.113","LB",2019-07-06,"2019-07-06 09:00:00","Offshore",NA,19.033,0,0
"LB Offshore.114","LB",2019-07-06,"2019-07-06 10:00:00","Offshore",NA,29.983,0,0
"LB Offshore.115","LB",2019-07-06,"2019-07-06 11:00:00","Offshore",NA,29.983,0,0
"LB Offshore.116","LB",2019-07-06,"2019-07-06 12:00:00","Offshore",NA,22.417,0,0
"LB Offshore.117","LB",2019-07-06,"2019-07-06 13:00:00","Offshore",NA,NA,NA,0.0317702858505499
"LB Offshore.118","LB",2019-07-06,"2019-07-06 14:00:00","Offshore",NA,NA,NA,0.0319699743049929
"LB Offshore.119","LB",2019-07-06,"2019-07-06 15:00:00","Offshore",NA,NA,NA,0.0321696627594359
"LB Offshore.120","LB",2019-07-06,"2019-07-06 16:00:00","Offshore",NA,NA,NA,0.0323693512138789
"LB Offshore.121","LB",2019-07-06,"2019-07-06 17:00:00","Offshore",NA,NA,NA,0.0325690396683219
"LB Offshore.122","LB",2019-07-06,"2019-07-06 18:00:00","Offshore",NA,NA,NA,0.0327687281227649
"LB Offshore.123","LB",2019-07-06,"2019-07-06 19:00:00","Offshore",NA,NA,NA,0.0329684165772079
"LB Offshore.124","LB",2019-07-06,"2019-07-06 20:00:00","Offshore",NA,NA,NA,0.0331681050316509
"LB Offshore.125","LB",2019-07-06,"2019-07-06 21:00:00","Offshore",NA,NA,NA,0.033367793486094
"LB Offshore.126","LB",2019-07-06,"2019-07-06 22:00:00","Offshore",NA,NA,NA,0.033567481940537
"LB Offshore.127","LB",2019-07-06,"2019-07-06 23:00:00","Offshore",NA,NA,NA,0.03376717039498
"LB Offshore.128","LB",2019-07-07,"2019-07-07 00:00:00","Offshore",NA,NA,NA,0.033966858849423
"LB Offshore.129","LB",2019-07-07,"2019-07-07 01:00:00","Offshore",NA,NA,NA,0.034166547303866
"LB Offshore.130","LB",2019-07-07,"2019-07-07 02:00:00","Offshore",NA,NA,NA,0.034366235758309
"LB Offshore.131","LB",2019-07-07,"2019-07-07 03:00:00","Offshore",NA,NA,NA,0.034565924212752
"LB Offshore.132","LB",2019-07-07,"2019-07-07 04:00:00","Offshore",NA,NA,NA,0.034765612667195
"LB Offshore.133","LB",2019-07-07,"2019-07-07 05:00:00","Offshore",NA,NA,NA,0.034965301121638
"LB Offshore.134","LB",2019-07-07,"2019-07-07 06:00:00","Offshore",NA,NA,NA,0.035164989576081
"LB Offshore.135","LB",2019-07-07,"2019-07-07 07:00:00","Offshore",NA,NA,NA,0.0353646780305241
"LB Offshore.136","LB",2019-07-07,"2019-07-07 08:00:00","Offshore",NA,NA,NA,0.0355643664849671
"LB Offshore.137","LB",2019-07-07,"2019-07-07 09:00:00","Offshore",NA,NA,NA,0.0357640549394101
"LB Offshore.138","LB",2019-07-07,"2019-07-07 10:00:00","Offshore",NA,NA,NA,0.0359637433938531
"LB Offshore.139","LB",2019-07-07,"2019-07-07 11:00:00","Offshore",NA,19.35,0,0
"LB Offshore.140","LB",2019-07-07,"2019-07-07 12:00:00","Offshore",NA,29.967,0,0
"LB Offshore.141","LB",2019-07-07,"2019-07-07 13:00:00","Offshore",NA,29.967,0,0
"LB Offshore.142","LB",2019-07-07,"2019-07-07 14:00:00","Offshore",NA,29.967,0,0
"LB Offshore.143","LB",2019-07-07,"2019-07-07 15:00:00","Offshore",NA,NA,NA,0.0370143322076903
"LB Offshore.144","LB",2019-07-07,"2019-07-07 16:00:00","Offshore",NA,NA,NA,0.0372349395237059
"LB Offshore.145","LB",2019-07-07,"2019-07-07 17:00:00","Offshore",NA,NA,NA,0.0374555468397215
"LB Offshore.146","LB",2019-07-07,"2019-07-07 18:00:00","Offshore",NA,NA,NA,0.0376761541557372
"LB Offshore.147","LB",2019-07-07,"2019-07-07 19:00:00","Offshore",NA,NA,NA,0.0378967614717528
"LB Offshore.148","LB",2019-07-07,"2019-07-07 20:00:00","Offshore",NA,NA,NA,0.0381173687877685
"LB Offshore.149","LB",2019-07-07,"2019-07-07 21:00:00","Offshore",NA,NA,NA,0.0383379761037841
"LB Offshore.150","LB",2019-07-07,"2019-07-07 22:00:00","Offshore",NA,NA,NA,0.0385585834197997
"LB Offshore.151","LB",2019-07-07,"2019-07-07 23:00:00","Offshore",NA,NA,NA,0.0387791907358154
"LB Offshore.152","LB",2019-07-08,"2019-07-08 00:00:00","Offshore",NA,NA,NA,0.038999798051831
"LB Offshore.153","LB",2019-07-08,"2019-07-08 01:00:00","Offshore",NA,NA,NA,0.0392204053678466
"LB Offshore.154","LB",2019-07-08,"2019-07-08 02:00:00","Offshore",NA,NA,NA,0.0394410126838623
"LB Offshore.155","LB",2019-07-08,"2019-07-08 03:00:00","Offshore",NA,NA,NA,0.0396616199998779
"LB Offshore.156","LB",2019-07-08,"2019-07-08 04:00:00","Offshore",NA,NA,NA,0.0398822273158936
"LB Offshore.157","LB",2019-07-08,"2019-07-08 05:00:00","Offshore",NA,NA,NA,0.0401028346319092
"LB Offshore.158","LB",2019-07-08,"2019-07-08 06:00:00","Offshore",NA,NA,NA,0.0403234419479248
"LB Offshore.159","LB",2019-07-08,"2019-07-08 07:00:00","Offshore",NA,NA,NA,0.0405440492639405
"LB Offshore.160","LB",2019-07-08,"2019-07-08 08:00:00","Offshore",NA,NA,NA,0.0407646565799561
"LB Offshore.161","LB",2019-07-08,"2019-07-08 09:00:00","Offshore",NA,NA,NA,0.0409852638959717
"LB Offshore.162","LB",2019-07-08,"2019-07-08 10:00:00","Offshore",NA,NA,NA,0.0412058712119874
"LB Offshore.163","LB",2019-07-08,"2019-07-08 11:00:00","Offshore",NA,NA,NA,0.041426478528003
"LB Offshore.164","LB",2019-07-08,"2019-07-08 12:00:00","Offshore",NA,NA,NA,0.0416470858440187
"LB Offshore.165","LB",2019-07-08,"2019-07-08 13:00:00","Offshore",NA,NA,NA,0.0418676931600343
"LB Offshore.166","LB",2019-07-08,"2019-07-08 14:00:00","Offshore",NA,NA,NA,0.0420883004760499
"LB Offshore.167","LB",2019-07-08,"2019-07-08 15:00:00","Offshore",NA,NA,NA,0.0423089077920656
"LB Offshore.168","LB",2019-07-08,"2019-07-08 16:00:00","Offshore",NA,NA,NA,0.0425295151080812
"LB Offshore.169","LB",2019-07-08,"2019-07-08 17:00:00","Offshore",NA,NA,NA,0.0427501224240968
"LB Offshore.170","LB",2019-07-08,"2019-07-08 18:00:00","Offshore",NA,NA,NA,0.0429707297401125
"LB Offshore.171","LB",2019-07-08,"2019-07-08 19:00:00","Offshore",NA,29.967,0,0
"LB Offshore.172","LB",2019-07-08,"2019-07-08 20:00:00","Offshore",NA,29.967,0,0
"LB Offshore.173","LB",2019-07-08,"2019-07-08 21:00:00","Offshore",NA,29.967,0,0
"LB Offshore.174","LB",2019-07-08,"2019-07-08 22:00:00","Offshore",NA,29.967,0,0
"LB Offshore.175","LB",2019-07-08,"2019-07-08 23:00:00","Offshore",NA,29.967,0,0
"RB Inshore.1","RB",2019-06-27,"2019-06-27 16:00:00","Inshore",NA,29.983,0,0
"RB Inshore.2","RB",2019-06-27,"2019-06-27 17:00:00","Inshore",NA,29.983,0,0
"RB Inshore.3","RB",2019-06-27,"2019-06-27 18:00:00","Inshore",NA,29.983,0,0
"RB Inshore.4","RB",2019-06-27,"2019-06-27 19:00:00","Inshore",NA,29.967,0,0
"RB Inshore.5","RB",2019-06-27,"2019-06-27 20:00:00","Inshore","LNN",29.967,-1,-2
"RB Inshore.6","RB",2019-06-27,"2019-06-27 21:00:00","Inshore","KJW",29.983,1,2
"RB Inshore.7","RB",2019-06-27,"2019-06-27 22:00:00","Inshore","KJW",29.983,1,2
"RB Inshore.8","RB",2019-06-27,"2019-06-27 23:00:00","Inshore",NA,29.967,0,0
"RB Inshore.9","RB",2019-06-28,"2019-06-28 00:00:00","Inshore",NA,29.967,0,0
"RB Inshore.10","RB",2019-06-28,"2019-06-28 01:00:00","Inshore",NA,29.967,0,0
"RB Inshore.11","RB",2019-06-28,"2019-06-28 02:00:00","Inshore",NA,29.967,0,0
"RB Inshore.12","RB",2019-06-28,"2019-06-28 03:00:00","Inshore",NA,29.983,0,0
"RB Inshore.13","RB",2019-06-28,"2019-06-28 04:00:00","Inshore",NA,29.983,0,0
"RB Inshore.14","RB",2019-06-28,"2019-06-28 05:00:00","Inshore",NA,29.983,0,0
"RB Inshore.15","RB",2019-06-28,"2019-06-28 06:00:00","Inshore",NA,29.983,0,0
"RB Inshore.16","RB",2019-06-28,"2019-06-28 07:00:00","Inshore","KJW",29.967,-1,-2
"RB Inshore.17","RB",2019-06-28,"2019-06-28 08:00:00","Inshore",NA,29.967,0,0
"RB Inshore.18","RB",2019-06-28,"2019-06-28 09:00:00","Inshore",NA,29.967,0,0
"RB Inshore.19","RB",2019-06-28,"2019-06-28 10:00:00","Inshore","KJW",29.983,1,2
"RB Inshore.20","RB",2019-06-28,"2019-06-28 11:00:00","Inshore",NA,29.983,0,0
"RB Inshore.21","RB",2019-06-28,"2019-06-28 12:00:00","Inshore",NA,29.967,0,0
"RB Inshore.22","RB",2019-06-28,"2019-06-28 13:00:00","Inshore",NA,29.967,0,0
"RB Inshore.23","RB",2019-06-28,"2019-06-28 14:00:00","Inshore",NA,29.967,0,0
"RB Inshore.24","RB",2019-06-28,"2019-06-28 15:00:00","Inshore",NA,29.967,0,0
"RB Inshore.25","RB",2019-06-28,"2019-06-28 16:00:00","Inshore",NA,NA,NA,0.0617412395252716
"RB Inshore.26","RB",2019-06-28,"2019-06-28 17:00:00","Inshore",NA,29.983,0,0
"RB Inshore.27","RB",2019-06-28,"2019-06-28 18:00:00","Inshore",NA,29.967,0,0
"RB Inshore.28","RB",2019-06-28,"2019-06-28 19:00:00","Inshore",NA,29.967,0,0
"RB Inshore.29","RB",2019-06-28,"2019-06-28 20:00:00","Inshore","LNN",29.967,1,2
"RB Inshore.30","RB",2019-06-28,"2019-06-28 21:00:00","Inshore","LNN",29.983,1,2
"RB Inshore.31","RB",2019-06-28,"2019-06-28 22:00:00","Inshore",NA,29.983,0,0
"RB Inshore.32","RB",2019-06-28,"2019-06-28 23:00:00","Inshore",NA,29.983,0,0
"RB Inshore.33","RB",2019-06-29,"2019-06-29 00:00:00","Inshore",NA,29.967,0,0
"RB Inshore.34","RB",2019-06-29,"2019-06-29 01:00:00","Inshore",NA,29.967,0,0
"RB Inshore.35","RB",2019-06-29,"2019-06-29 02:00:00","Inshore",NA,29.967,0,0
"RB Inshore.36","RB",2019-06-29,"2019-06-29 03:00:00","Inshore",NA,29.967,0,0
"RB Inshore.37","RB",2019-06-29,"2019-06-29 04:00:00","Inshore","LNN",29.983,1,2
"RB Inshore.38","RB",2019-06-29,"2019-06-29 05:00:00","Inshore",NA,29.967,0,0
"RB Inshore.39","RB",2019-06-29,"2019-06-29 06:00:00","Inshore",NA,29.967,0,0
"RB Inshore.40","RB",2019-06-29,"2019-06-29 07:00:00","Inshore",NA,29.967,0,0
"RB Inshore.41","RB",2019-06-29,"2019-06-29 08:00:00","Inshore",NA,29.967,0,0
"RB Inshore.42","RB",2019-06-29,"2019-06-29 09:00:00","Inshore",NA,29.983,0,0
"RB Inshore.43","RB",2019-06-29,"2019-06-29 10:00:00","Inshore",NA,27.583,0,0
"RB Inshore.44","RB",2019-06-29,"2019-06-29 11:00:00","Inshore",NA,29.983,0,0
"RB Inshore.45","RB",2019-06-29,"2019-06-29 12:00:00","Inshore",NA,29.983,0,0
"RB Inshore.46","RB",2019-06-29,"2019-06-29 13:00:00","Inshore",NA,29.983,0,0
"RB Inshore.47","RB",2019-06-29,"2019-06-29 14:00:00","Inshore",NA,29.967,0,0
"RB Inshore.48","RB",2019-06-29,"2019-06-29 15:00:00","Inshore",NA,29.967,0,0
"RB Inshore.49","RB",2019-06-29,"2019-06-29 16:00:00","Inshore","MLM",29.967,1,2
"RB Inshore.50","RB",2019-06-29,"2019-06-29 17:00:00","Inshore",NA,29.983,0,0
"RB Inshore.51","RB",2019-06-29,"2019-06-29 18:00:00","Inshore",NA,29.983,0,0
"RB Inshore.52","RB",2019-06-29,"2019-06-29 19:00:00","Inshore",NA,29.967,0,0
"RB Inshore.53","RB",2019-06-29,"2019-06-29 20:00:00","Inshore",NA,29.967,0,0
"RB Inshore.54","RB",2019-06-29,"2019-06-29 21:00:00","Inshore",NA,29.967,0,0
"RB Inshore.55","RB",2019-06-29,"2019-06-29 22:00:00","Inshore",NA,29.983,0,0
"RB Inshore.56","RB",2019-06-29,"2019-06-29 23:00:00","Inshore",NA,29.983,0,0
"RB Inshore.57","RB",2019-06-30,"2019-06-30 00:00:00","Inshore",NA,29.983,0,0
"RB Inshore.58","RB",2019-06-30,"2019-06-30 01:00:00","Inshore",NA,29.967,0,0
"RB Inshore.59","RB",2019-06-30,"2019-06-30 02:00:00","Inshore",NA,29.967,0,0
"RB Inshore.60","RB",2019-06-30,"2019-06-30 03:00:00","Inshore","MLM",29.967,1,2
"RB Inshore.61","RB",2019-06-30,"2019-06-30 04:00:00","Inshore",NA,29.967,0,0
"RB Inshore.62","RB",2019-06-30,"2019-06-30 05:00:00","Inshore",NA,29.983,0,0
"RB Inshore.63","RB",2019-06-30,"2019-06-30 06:00:00","Inshore",NA,29.983,0,0
"RB Inshore.64","RB",2019-06-30,"2019-06-30 07:00:00","Inshore",NA,29.983,0,0
"RB Inshore.65","RB",2019-06-30,"2019-06-30 08:00:00","Inshore",NA,29.967,0,0
"RB Inshore.66","RB",2019-06-30,"2019-06-30 09:00:00","Inshore",NA,29.967,0,0
"RB Inshore.67","RB",2019-06-30,"2019-06-30 10:00:00","Inshore",NA,NA,NA,0.142655115917202
"RB Inshore.68","RB",2019-06-30,"2019-06-30 11:00:00","Inshore",NA,29.983,0,0
"RB Inshore.69","RB",2019-06-30,"2019-06-30 12:00:00","Inshore",NA,29.983,0,0
"RB Inshore.70","RB",2019-06-30,"2019-06-30 13:00:00","Inshore",NA,29.983,0,0
"RB Inshore.71","RB",2019-06-30,"2019-06-30 14:00:00","Inshore",NA,NA,NA,0.14987340191822
"RB Inshore.72","RB",2019-06-30,"2019-06-30 15:00:00","Inshore",NA,NA,NA,0.151700363431808
"RB Inshore.73","RB",2019-06-30,"2019-06-30 16:00:00","Inshore",NA,NA,NA,0.153527324945396
"RB Inshore.74","RB",2019-06-30,"2019-06-30 17:00:00","Inshore",NA,NA,NA,0.155354286458984
"RB Inshore.75","RB",2019-06-30,"2019-06-30 18:00:00","Inshore","MLM",29.983,1,2
"RB Inshore.76","RB",2019-06-30,"2019-06-30 19:00:00","Inshore",NA,29.983,0,0
"RB Inshore.77","RB",2019-06-30,"2019-06-30 20:00:00","Inshore","MLM",29.983,1,2
"RB Inshore.78","RB",2019-06-30,"2019-06-30 21:00:00","Inshore",NA,29.983,0,0
"RB Inshore.79","RB",2019-06-30,"2019-06-30 22:00:00","Inshore",NA,29.983,0,0
"RB Inshore.80","RB",2019-06-30,"2019-06-30 23:00:00","Inshore","MLM",29.967,1,2
"RB Inshore.81","RB",2019-07-01,"2019-07-01 00:00:00","Inshore",NA,29.967,0,0
"RB Inshore.82","RB",2019-07-01,"2019-07-01 01:00:00","Inshore",NA,29.983,0,0
"RB Inshore.83","RB",2019-07-01,"2019-07-01 02:00:00","Inshore",NA,29.983,0,0
"RB Inshore.84","RB",2019-07-01,"2019-07-01 03:00:00","Inshore",NA,29.983,0,0
"RB Inshore.85","RB",2019-07-01,"2019-07-01 04:00:00","Inshore",NA,29.983,0,0
"RB Inshore.86","RB",2019-07-01,"2019-07-01 05:00:00","Inshore",NA,29.967,0,0
"RB Inshore.87","RB",2019-07-01,"2019-07-01 06:00:00","Inshore",NA,29.967,0,0
"RB Inshore.88","RB",2019-07-01,"2019-07-01 07:00:00","Inshore",NA,29.983,0,0
"RB Inshore.89","RB",2019-07-01,"2019-07-01 08:00:00","Inshore",NA,29.983,0,0
"RB Inshore.90","RB",2019-07-01,"2019-07-01 09:00:00","Inshore",NA,29.983,0,0
"RB Inshore.91","RB",2019-07-01,"2019-07-01 10:00:00","Inshore",NA,29.983,0,0
"RB Inshore.92","RB",2019-07-01,"2019-07-01 11:00:00","Inshore","KJW",29.983,1,2
"RB Inshore.93","RB",2019-07-01,"2019-07-01 12:00:00","Inshore",NA,29.967,0,0
"RB Inshore.94","RB",2019-07-01,"2019-07-01 13:00:00","Inshore",NA,29.967,0,0
"RB Inshore.95","RB",2019-07-01,"2019-07-01 14:00:00","Inshore",NA,29.983,0,0
"RB Inshore.96","RB",2019-07-01,"2019-07-01 15:00:00","Inshore",NA,24.7,0,0
"RB Inshore.97","RB",2019-07-01,"2019-07-01 16:00:00","Inshore",NA,29.983,0,0
"RB Inshore.98","RB",2019-07-01,"2019-07-01 17:00:00","Inshore",NA,29.983,0,0
"RB Inshore.99","RB",2019-07-01,"2019-07-01 18:00:00","Inshore",NA,29.967,0,0
"RB Inshore.100","RB",2019-07-01,"2019-07-01 19:00:00","Inshore",NA,29.967,0,0
"RB Inshore.101","RB",2019-07-01,"2019-07-01 20:00:00","Inshore",NA,NA,NA,0.194461835373149
"RB Inshore.102","RB",2019-07-01,"2019-07-01 21:00:00","Inshore",NA,NA,NA,0.19593887588202
"RB Inshore.103","RB",2019-07-01,"2019-07-01 22:00:00","Inshore",NA,NA,NA,0.197415916390892
"RB Inshore.104","RB",2019-07-01,"2019-07-01 23:00:00","Inshore",NA,NA,NA,0.198892956899763
"RB Inshore.105","RB",2019-07-02,"2019-07-02 00:00:00","Inshore",NA,29.983,0,0
"RB Inshore.106","RB",2019-07-02,"2019-07-02 01:00:00","Inshore",NA,29.983,0,0
"RB Inshore.107","RB",2019-07-02,"2019-07-02 02:00:00","Inshore",NA,29.983,0,0
"RB Inshore.108","RB",2019-07-02,"2019-07-02 03:00:00","Inshore","LNN",29.983,1,2
"RB Inshore.109","RB",2019-07-02,"2019-07-02 04:00:00","Inshore",NA,29.983,0,0
"RB Inshore.110","RB",2019-07-02,"2019-07-02 05:00:00","Inshore",NA,29.983,0,0
"RB Inshore.111","RB",2019-07-02,"2019-07-02 06:00:00","Inshore",NA,29.983,0,0
"RB Inshore.112","RB",2019-07-02,"2019-07-02 07:00:00","Inshore",NA,29.983,0,0
"RB Inshore.113","RB",2019-07-02,"2019-07-02 08:00:00","Inshore",NA,29.967,0,0
"RB Inshore.114","RB",2019-07-02,"2019-07-02 09:00:00","Inshore",NA,29.983,0,0
"RB Inshore.115","RB",2019-07-02,"2019-07-02 10:00:00","Inshore","LNN",29.983,1,2
"RB Inshore.116","RB",2019-07-02,"2019-07-02 11:00:00","Inshore",NA,29.967,0,0
"RB Inshore.117","RB",2019-07-02,"2019-07-02 12:00:00","Inshore",NA,29.983,0,0
"RB Inshore.118","RB",2019-07-02,"2019-07-02 13:00:00","Inshore",NA,29.983,0,0
"RB Inshore.119","RB",2019-07-02,"2019-07-02 14:00:00","Inshore",NA,29.967,0,0
"RB Inshore.120","RB",2019-07-02,"2019-07-02 15:00:00","Inshore",NA,29.983,0,0
"RB Inshore.121","RB",2019-07-02,"2019-07-02 16:00:00","Inshore","LNN",29.983,1,2
"RB Inshore.122","RB",2019-07-02,"2019-07-02 17:00:00","Inshore",NA,29.983,0,0
"RB Inshore.123","RB",2019-07-02,"2019-07-02 18:00:00","Inshore",NA,29.983,0,0
"RB Inshore.124","RB",2019-07-02,"2019-07-02 19:00:00","Inshore",NA,29.983,0,0
"RB Inshore.125","RB",2019-07-02,"2019-07-02 20:00:00","Inshore","LNN",29.967,1,2
"RB Inshore.126","RB",2019-07-02,"2019-07-02 21:00:00","Inshore",NA,29.967,0,0
"RB Inshore.127","RB",2019-07-02,"2019-07-02 22:00:00","Inshore",NA,29.983,0,0
"RB Inshore.128","RB",2019-07-02,"2019-07-02 23:00:00","Inshore",NA,29.983,0,0
"RB Inshore.129","RB",2019-07-03,"2019-07-03 00:00:00","Inshore",NA,29.983,0,0
"RB Inshore.130","RB",2019-07-03,"2019-07-03 01:00:00","Inshore",NA,29.983,0,0
"RB Inshore.131","RB",2019-07-03,"2019-07-03 02:00:00","Inshore",NA,29.983,0,0
"RB Inshore.132","RB",2019-07-03,"2019-07-03 03:00:00","Inshore",NA,29.967,0,0
"RB Inshore.133","RB",2019-07-03,"2019-07-03 04:00:00","Inshore",NA,29.967,0,0
"RB Inshore.134","RB",2019-07-03,"2019-07-03 05:00:00","Inshore","LNN",29.983,1,2
"RB Inshore.135","RB",2019-07-03,"2019-07-03 06:00:00","Inshore",NA,29.983,0,0
"RB Inshore.136","RB",2019-07-03,"2019-07-03 07:00:00","Inshore",NA,29.983,0,0
"RB Inshore.137","RB",2019-07-03,"2019-07-03 08:00:00","Inshore",NA,29.983,0,0
"RB Inshore.138","RB",2019-07-03,"2019-07-03 09:00:00","Inshore",NA,29.983,0,0
"RB Inshore.139","RB",2019-07-03,"2019-07-03 10:00:00","Inshore",NA,29.983,0,0
"RB Inshore.140","RB",2019-07-03,"2019-07-03 11:00:00","Inshore",NA,29.983,0,0
"RB Inshore.141","RB",2019-07-03,"2019-07-03 12:00:00","Inshore",NA,29.983,0,0
"RB Inshore.142","RB",2019-07-03,"2019-07-03 13:00:00","Inshore",NA,29.983,0,0
"RB Inshore.143","RB",2019-07-03,"2019-07-03 14:00:00","Inshore",NA,29.983,0,0
"RB Inshore.144","RB",2019-07-03,"2019-07-03 15:00:00","Inshore",NA,29.983,0,0
"RB Inshore.145","RB",2019-07-03,"2019-07-03 16:00:00","Inshore",NA,29.983,0,0
"RB Inshore.146","RB",2019-07-03,"2019-07-03 17:00:00","Inshore",NA,29.983,0,0
"RB Inshore.147","RB",2019-07-03,"2019-07-03 18:00:00","Inshore",NA,29.983,0,0
"RB Inshore.148","RB",2019-07-03,"2019-07-03 19:00:00","Inshore",NA,29.983,0,0
"RB Inshore.149","RB",2019-07-03,"2019-07-03 20:00:00","Inshore",NA,29.983,0,0
"RB Inshore.150","RB",2019-07-03,"2019-07-03 21:00:00","Inshore",NA,29.983,0,0
"RB Inshore.151","RB",2019-07-03,"2019-07-03 22:00:00","Inshore",NA,29.983,0,0
"RB Inshore.152","RB",2019-07-03,"2019-07-03 23:00:00","Inshore",NA,29.967,0,0
"RB Inshore.153","RB",2019-07-04,"2019-07-04 00:00:00","Inshore",NA,29.967,0,0
"RB Inshore.154","RB",2019-07-04,"2019-07-04 01:00:00","Inshore",NA,29.983,0,0
"RB Inshore.155","RB",2019-07-04,"2019-07-04 02:00:00","Inshore",NA,29.983,0,0
"RB Inshore.156","RB",2019-07-04,"2019-07-04 03:00:00","Inshore",NA,29.983,0,0
"RB Inshore.157","RB",2019-07-04,"2019-07-04 04:00:00","Inshore",NA,29.983,0,0
"RB Inshore.158","RB",2019-07-04,"2019-07-04 05:00:00","Inshore",NA,29.967,0,0
"RB Inshore.159","RB",2019-07-04,"2019-07-04 06:00:00","Inshore",NA,29.967,0,0
"RB Inshore.160","RB",2019-07-04,"2019-07-04 07:00:00","Inshore",NA,29.983,0,0
"RB Inshore.161","RB",2019-07-04,"2019-07-04 08:00:00","Inshore","KJW",29.983,1,2
"RB Inshore.162","RB",2019-07-04,"2019-07-04 09:00:00","Inshore","KJW",29.983,1,2
"RB Inshore.163","RB",2019-07-04,"2019-07-04 10:00:00","Inshore",NA,29.983,0,0
"RB Inshore.164","RB",2019-07-04,"2019-07-04 11:00:00","Inshore",NA,29.983,0,0
"RB Inshore.165","RB",2019-07-04,"2019-07-04 12:00:00","Inshore",NA,29.967,0,0
"RB Inshore.166","RB",2019-07-04,"2019-07-04 13:00:00","Inshore","KJW",29.967,1,2
"RB Inshore.167","RB",2019-07-04,"2019-07-04 14:00:00","Inshore",NA,29.983,0,0
"RB Inshore.168","RB",2019-07-04,"2019-07-04 15:00:00","Inshore","KJW",29.983,1,2
"RB Inshore.169","RB",2019-07-04,"2019-07-04 16:00:00","Inshore","KJW",29.983,-1,-2
"RB Inshore.170","RB",2019-07-04,"2019-07-04 17:00:00","Inshore",NA,29.983,0,0
"RB Inshore.171","RB",2019-07-04,"2019-07-04 18:00:00","Inshore",NA,29.983,0,0
"RB Inshore.172","RB",2019-07-04,"2019-07-04 19:00:00","Inshore","KJW",29.967,1,2
"RB Inshore.173","RB",2019-07-04,"2019-07-04 20:00:00","Inshore",NA,29.983,0,0
"RB Inshore.174","RB",2019-07-04,"2019-07-04 21:00:00","Inshore",NA,29.983,0,0
"RB Inshore.175","RB",2019-07-04,"2019-07-04 22:00:00","Inshore",NA,29.983,0,0
"RB Inshore.176","RB",2019-07-04,"2019-07-04 23:00:00","Inshore","KJW",29.983,1,2
"RB Inshore.177","RB",2019-07-05,"2019-07-05 00:00:00","Inshore",NA,29.983,0,0
"RB Inshore.178","RB",2019-07-05,"2019-07-05 01:00:00","Inshore","LNN",29.967,2,4
"RB Inshore.179","RB",2019-07-05,"2019-07-05 02:00:00","Inshore",NA,29.967,0,0
"RB Inshore.180","RB",2019-07-05,"2019-07-05 03:00:00","Inshore",NA,29.983,0,0
"RB Inshore.181","RB",2019-07-05,"2019-07-05 04:00:00","Inshore",NA,29.983,0,0
"RB Inshore.182","RB",2019-07-05,"2019-07-05 05:00:00","Inshore",NA,29.983,0,0
"RB Inshore.183","RB",2019-07-05,"2019-07-05 06:00:00","Inshore","LNN",29.983,-1,-2
"RB Inshore.184","RB",2019-07-05,"2019-07-05 07:00:00","Inshore",NA,29.967,0,0
"RB Inshore.185","RB",2019-07-05,"2019-07-05 08:00:00","Inshore","LNN",29.967,1,2
"RB Inshore.186","RB",2019-07-05,"2019-07-05 09:00:00","Inshore",NA,29.967,0,0
"RB Inshore.187","RB",2019-07-05,"2019-07-05 10:00:00","Inshore",NA,29.983,0,0
"RB Inshore.188","RB",2019-07-05,"2019-07-05 11:00:00","Inshore",NA,29.983,0,0
"RB Inshore.189","RB",2019-07-05,"2019-07-05 12:00:00","Inshore","LNN",29.983,1,2
"RB Inshore.190","RB",2019-07-05,"2019-07-05 13:00:00","Inshore",NA,29.983,0,0
"RB Inshore.191","RB",2019-07-05,"2019-07-05 14:00:00","Inshore",NA,29.983,0,0
"RB Inshore.192","RB",2019-07-05,"2019-07-05 15:00:00","Inshore",NA,29.967,0,0
"RB Inshore.193","RB",2019-07-05,"2019-07-05 16:00:00","Inshore",NA,29.983,0,0
"RB Inshore.194","RB",2019-07-05,"2019-07-05 17:00:00","Inshore",NA,NA,NA,0.320754682257789
"RB Inshore.195","RB",2019-07-05,"2019-07-05 18:00:00","Inshore",NA,NA,NA,0.32194797855314
"RB Inshore.196","RB",2019-07-05,"2019-07-05 19:00:00","Inshore",NA,NA,NA,0.32314127484849
"RB Inshore.197","RB",2019-07-05,"2019-07-05 20:00:00","Inshore",NA,15.383,0,0
"RB Inshore.198","RB",2019-07-05,"2019-07-05 21:00:00","Inshore",NA,29.983,0,0
"RB Inshore.199","RB",2019-07-05,"2019-07-05 22:00:00","Inshore",NA,29.967,0,0
"RB Inshore.200","RB",2019-07-05,"2019-07-05 23:00:00","Inshore",NA,29.967,0,0
"RB Inshore.201","RB",2019-07-06,"2019-07-06 00:00:00","Inshore","KJW",29.967,-1,-2
"RB Inshore.202","RB",2019-07-06,"2019-07-06 01:00:00","Inshore",NA,29.967,0,0
"RB Inshore.203","RB",2019-07-06,"2019-07-06 02:00:00","Inshore","KJW",29.967,1,2
"RB Inshore.204","RB",2019-07-06,"2019-07-06 03:00:00","Inshore",NA,29.983,0,0
"RB Inshore.205","RB",2019-07-06,"2019-07-06 04:00:00","Inshore",NA,29.967,0,0
"RB Inshore.206","RB",2019-07-06,"2019-07-06 05:00:00","Inshore",NA,29.967,0,0
"RB Inshore.207","RB",2019-07-06,"2019-07-06 06:00:00","Inshore",NA,29.95,0,0
"RB Inshore.208","RB",2019-07-06,"2019-07-06 07:00:00","Inshore",NA,29.967,0,0
"RB Inshore.209","RB",2019-07-06,"2019-07-06 08:00:00","Inshore","KJW",29.967,0,0
"RB Inshore.210","RB",2019-07-06,"2019-07-06 09:00:00","Inshore","KJW",27.05,1,2
"RB Inshore.211","RB",2019-07-06,"2019-07-06 10:00:00","Inshore","KJW",29.967,1,2
"RB Inshore.212","RB",2019-07-06,"2019-07-06 11:00:00","Inshore","KJW",29.967,-1,-2
"RB Inshore.213","RB",2019-07-06,"2019-07-06 12:00:00","Inshore",NA,29.967,0,0
"RB Inshore.214","RB",2019-07-06,"2019-07-06 13:00:00","Inshore",NA,29.967,0,0
"RB Inshore.215","RB",2019-07-06,"2019-07-06 14:00:00","Inshore",NA,29.967,0,0
"RB Inshore.216","RB",2019-07-06,"2019-07-06 15:00:00","Inshore",NA,29.983,0,0
"RB Inshore.217","RB",2019-07-06,"2019-07-06 16:00:00","Inshore",NA,29.983,0,0
"RB Inshore.218","RB",2019-07-06,"2019-07-06 17:00:00","Inshore",NA,29.983,0,0
"RB Inshore.219","RB",2019-07-06,"2019-07-06 18:00:00","Inshore",NA,29.983,0,0
"RB Inshore.220","RB",2019-07-06,"2019-07-06 19:00:00","Inshore",NA,29.983,0,0
"RB Inshore.221","RB",2019-07-06,"2019-07-06 20:00:00","Inshore","KJW",29.983,2,4
"RB Inshore.222","RB",2019-07-06,"2019-07-06 21:00:00","Inshore",NA,29.967,0,0
"RB Inshore.223","RB",2019-07-06,"2019-07-06 22:00:00","Inshore",NA,29.967,0,0
"RB Inshore.224","RB",2019-07-06,"2019-07-06 23:00:00","Inshore","KJW",29.967,1,2
"RB Inshore.225","RB",2019-07-07,"2019-07-07 00:00:00","Inshore",NA,29.983,0,0
"RB Inshore.226","RB",2019-07-07,"2019-07-07 01:00:00","Inshore",NA,29.983,0,0
"RB Inshore.227","RB",2019-07-07,"2019-07-07 02:00:00","Inshore",NA,29.967,0,0
"RB Inshore.228","RB",2019-07-07,"2019-07-07 03:00:00","Inshore",NA,29.967,0,0
"RB Inshore.229","RB",2019-07-07,"2019-07-07 04:00:00","Inshore",NA,29.967,0,0
"RB Inshore.230","RB",2019-07-07,"2019-07-07 05:00:00","Inshore",NA,29.967,0,0
"RB Inshore.231","RB",2019-07-07,"2019-07-07 06:00:00","Inshore",NA,29.95,0,0
"RB Offshore.1","RB",2019-06-27,"2019-06-27 16:00:00","Offshore",NA,29.967,0,0
"RB Offshore.2","RB",2019-06-27,"2019-06-27 17:00:00","Offshore",NA,29.967,0,0
"RB Offshore.3","RB",2019-06-27,"2019-06-27 18:00:00","Offshore",NA,29.967,0,0
"RB Offshore.4","RB",2019-06-27,"2019-06-27 19:00:00","Offshore",NA,29.967,0,0
"RB Offshore.5","RB",2019-06-27,"2019-06-27 20:00:00","Offshore",NA,29.983,0,0
"RB Offshore.6","RB",2019-06-27,"2019-06-27 21:00:00","Offshore",NA,29.983,0,0
"RB Offshore.7","RB",2019-06-27,"2019-06-27 22:00:00","Offshore",NA,29.967,0,0
"RB Offshore.8","RB",2019-06-27,"2019-06-27 23:00:00","Offshore",NA,29.967,0,0
"RB Offshore.9","RB",2019-06-28,"2019-06-28 00:00:00","Offshore",NA,29.967,0,0
"RB Offshore.10","RB",2019-06-28,"2019-06-28 01:00:00","Offshore",NA,29.967,0,0
"RB Offshore.11","RB",2019-06-28,"2019-06-28 02:00:00","Offshore",NA,29.983,0,0
"RB Offshore.12","RB",2019-06-28,"2019-06-28 03:00:00","Offshore",NA,29.967,0,0
"RB Offshore.13","RB",2019-06-28,"2019-06-28 04:00:00","Offshore",NA,29.967,0,0
"RB Offshore.14","RB",2019-06-28,"2019-06-28 05:00:00","Offshore",NA,29.967,0,0
"RB Offshore.15","RB",2019-06-28,"2019-06-28 06:00:00","Offshore",NA,29.967,0,0
"RB Offshore.16","RB",2019-06-28,"2019-06-28 07:00:00","Offshore",NA,29.967,0,0
"RB Offshore.17","RB",2019-06-28,"2019-06-28 08:00:00","Offshore",NA,29.967,0,0
"RB Offshore.18","RB",2019-06-28,"2019-06-28 09:00:00","Offshore",NA,29.967,0,0
"RB Offshore.19","RB",2019-06-28,"2019-06-28 10:00:00","Offshore",NA,29.967,0,0
"RB Offshore.20","RB",2019-06-28,"2019-06-28 11:00:00","Offshore",NA,29.967,0,0
"RB Offshore.21","RB",2019-06-28,"2019-06-28 12:00:00","Offshore",NA,29.967,0,0
"RB Offshore.22","RB",2019-06-28,"2019-06-28 13:00:00","Offshore",NA,29.967,0,0
"RB Offshore.23","RB",2019-06-28,"2019-06-28 14:00:00","Offshore",NA,29.95,0,0
"RB Offshore.24","RB",2019-06-28,"2019-06-28 15:00:00","Offshore",NA,NA,NA,0.0239759619595005
"RB Offshore.25","RB",2019-06-28,"2019-06-28 16:00:00","Offshore",NA,29.967,0,0
"RB Offshore.26","RB",2019-06-28,"2019-06-28 17:00:00","Offshore",NA,29.967,0,0
"RB Offshore.27","RB",2019-06-28,"2019-06-28 18:00:00","Offshore",NA,29.967,0,0
"RB Offshore.28","RB",2019-06-28,"2019-06-28 19:00:00","Offshore",NA,29.967,0,0
"RB Offshore.29","RB",2019-06-28,"2019-06-28 20:00:00","Offshore",NA,29.967,0,0
"RB Offshore.30","RB",2019-06-28,"2019-06-28 21:00:00","Offshore",NA,29.967,0,0
"RB Offshore.31","RB",2019-06-28,"2019-06-28 22:00:00","Offshore",NA,29.967,0,0
"RB Offshore.32","RB",2019-06-28,"2019-06-28 23:00:00","Offshore",NA,29.967,0,0
"RB Offshore.33","RB",2019-06-29,"2019-06-29 00:00:00","Offshore",NA,29.967,0,0
"RB Offshore.34","RB",2019-06-29,"2019-06-29 01:00:00","Offshore",NA,29.967,0,0
"RB Offshore.35","RB",2019-06-29,"2019-06-29 02:00:00","Offshore",NA,29.967,0,0
"RB Offshore.36","RB",2019-06-29,"2019-06-29 03:00:00","Offshore",NA,29.967,0,0
"RB Offshore.37","RB",2019-06-29,"2019-06-29 04:00:00","Offshore",NA,29.967,0,0
"RB Offshore.38","RB",2019-06-29,"2019-06-29 05:00:00","Offshore",NA,29.967,0,0
"RB Offshore.39","RB",2019-06-29,"2019-06-29 06:00:00","Offshore",NA,29.967,0,0
"RB Offshore.40","RB",2019-06-29,"2019-06-29 07:00:00","Offshore",NA,29.967,0,0
"RB Offshore.41","RB",2019-06-29,"2019-06-29 08:00:00","Offshore",NA,29.983,0,0
"RB Offshore.42","RB",2019-06-29,"2019-06-29 09:00:00","Offshore",NA,29.967,0,0
"RB Offshore.43","RB",2019-06-29,"2019-06-29 10:00:00","Offshore",NA,29.117,0,0
"RB Offshore.44","RB",2019-06-29,"2019-06-29 11:00:00","Offshore",NA,29.967,0,0
"RB Offshore.45","RB",2019-06-29,"2019-06-29 12:00:00","Offshore",NA,29.967,0,0
"RB Offshore.46","RB",2019-06-29,"2019-06-29 13:00:00","Offshore",NA,29.967,0,0
"RB Offshore.47","RB",2019-06-29,"2019-06-29 14:00:00","Offshore",NA,29.967,0,0
"RB Offshore.48","RB",2019-06-29,"2019-06-29 15:00:00","Offshore",NA,29.967,0,0
"RB Offshore.49","RB",2019-06-29,"2019-06-29 16:00:00","Offshore",NA,29.983,0,0
"RB Offshore.50","RB",2019-06-29,"2019-06-29 17:00:00","Offshore",NA,29.967,0,0
"RB Offshore.51","RB",2019-06-29,"2019-06-29 18:00:00","Offshore",NA,29.967,0,0
"RB Offshore.52","RB",2019-06-29,"2019-06-29 19:00:00","Offshore",NA,29.967,0,0
"RB Offshore.53","RB",2019-06-29,"2019-06-29 20:00:00","Offshore",NA,29.967,0,0
"RB Offshore.54","RB",2019-06-29,"2019-06-29 21:00:00","Offshore",NA,29.967,0,0
"RB Offshore.55","RB",2019-06-29,"2019-06-29 22:00:00","Offshore",NA,29.967,0,0
"RB Offshore.56","RB",2019-06-29,"2019-06-29 23:00:00","Offshore",NA,29.967,0,0
"RB Offshore.57","RB",2019-06-30,"2019-06-30 00:00:00","Offshore",NA,29.967,0,0
"RB Offshore.58","RB",2019-06-30,"2019-06-30 01:00:00","Offshore",NA,29.967,0,0
"RB Offshore.59","RB",2019-06-30,"2019-06-30 02:00:00","Offshore",NA,29.967,0,0
"RB Offshore.60","RB",2019-06-30,"2019-06-30 03:00:00","Offshore",NA,29.967,0,0
"RB Offshore.61","RB",2019-06-30,"2019-06-30 04:00:00","Offshore",NA,29.983,0,0
"RB Offshore.62","RB",2019-06-30,"2019-06-30 05:00:00","Offshore",NA,29.967,0,0
"RB Offshore.63","RB",2019-06-30,"2019-06-30 06:00:00","Offshore",NA,29.967,0,0
"RB Offshore.64","RB",2019-06-30,"2019-06-30 07:00:00","Offshore",NA,29.967,0,0
"RB Offshore.65","RB",2019-06-30,"2019-06-30 08:00:00","Offshore",NA,29.967,0,0
"RB Offshore.66","RB",2019-06-30,"2019-06-30 09:00:00","Offshore",NA,NA,NA,0.0642555780514612
"RB Offshore.67","RB",2019-06-30,"2019-06-30 10:00:00","Offshore",NA,NA,NA,0.0652146165298413
"RB Offshore.68","RB",2019-06-30,"2019-06-30 11:00:00","Offshore",NA,29.967,0,0
"RB Offshore.69","RB",2019-06-30,"2019-06-30 12:00:00","Offshore",NA,29.967,0,0
"RB Offshore.70","RB",2019-06-30,"2019-06-30 13:00:00","Offshore",NA,10.617,0,0
"RB Offshore.71","RB",2019-06-30,"2019-06-30 14:00:00","Offshore",NA,NA,NA,0.0690507704433613
"RB Offshore.72","RB",2019-06-30,"2019-06-30 15:00:00","Offshore",NA,NA,NA,0.0700098089217413
"RB Offshore.73","RB",2019-06-30,"2019-06-30 16:00:00","Offshore",NA,NA,NA,0.0709688474001213
"RB Offshore.74","RB",2019-06-30,"2019-06-30 17:00:00","Offshore",NA,10.383,0,0
"RB Offshore.75","RB",2019-06-30,"2019-06-30 18:00:00","Offshore",NA,29.983,0,0
"RB Offshore.76","RB",2019-06-30,"2019-06-30 19:00:00","Offshore",NA,29.983,0,0
"RB Offshore.77","RB",2019-06-30,"2019-06-30 20:00:00","Offshore",NA,29.983,0,0
"RB Offshore.78","RB",2019-06-30,"2019-06-30 21:00:00","Offshore",NA,29.967,0,0
"RB Offshore.79","RB",2019-06-30,"2019-06-30 22:00:00","Offshore",NA,29.967,0,0
"RB Offshore.80","RB",2019-06-30,"2019-06-30 23:00:00","Offshore",NA,29.967,0,0
"RB Offshore.81","RB",2019-07-01,"2019-07-01 00:00:00","Offshore",NA,29.983,0,0
"RB Offshore.82","RB",2019-07-01,"2019-07-01 01:00:00","Offshore","KJW",29.983,1,2
"RB Offshore.83","RB",2019-07-01,"2019-07-01 02:00:00","Offshore",NA,29.983,0,0
"RB Offshore.84","RB",2019-07-01,"2019-07-01 03:00:00","Offshore",NA,29.967,0,0
"RB Offshore.85","RB",2019-07-01,"2019-07-01 04:00:00","Offshore",NA,29.967,0,0
"RB Offshore.86","RB",2019-07-01,"2019-07-01 05:00:00","Offshore",NA,29.967,0,0
"RB Offshore.87","RB",2019-07-01,"2019-07-01 06:00:00","Offshore","KJW",29.967,1,2
"RB Offshore.88","RB",2019-07-01,"2019-07-01 07:00:00","Offshore",NA,29.983,0,0
"RB Offshore.89","RB",2019-07-01,"2019-07-01 08:00:00","Offshore",NA,29.983,0,0
"RB Offshore.90","RB",2019-07-01,"2019-07-01 09:00:00","Offshore",NA,29.967,0,0
"RB Offshore.91","RB",2019-07-01,"2019-07-01 10:00:00","Offshore",NA,29.967,0,0
"RB Offshore.92","RB",2019-07-01,"2019-07-01 11:00:00","Offshore",NA,29.967,0,0
"RB Offshore.93","RB",2019-07-01,"2019-07-01 12:00:00","Offshore",NA,29.967,0,0
"RB Offshore.94","RB",2019-07-01,"2019-07-01 13:00:00","Offshore",NA,29.983,0,0
"RB Offshore.95","RB",2019-07-01,"2019-07-01 14:00:00","Offshore",NA,29.983,0,0
"RB Offshore.96","RB",2019-07-01,"2019-07-01 15:00:00","Offshore",NA,NA,NA,0.0930267324028616
"RB Offshore.97","RB",2019-07-01,"2019-07-01 16:00:00","Offshore",NA,29.967,0,0
"RB Offshore.98","RB",2019-07-01,"2019-07-01 17:00:00","Offshore",NA,29.967,0,0
"RB Offshore.99","RB",2019-07-01,"2019-07-01 18:00:00","Offshore",NA,29.967,0,0
"RB Offshore.100","RB",2019-07-01,"2019-07-01 19:00:00","Offshore",NA,29.967,0,0
"RB Offshore.101","RB",2019-07-01,"2019-07-01 20:00:00","Offshore","KJW",29.983,1,2
"RB Offshore.102","RB",2019-07-01,"2019-07-01 21:00:00","Offshore",NA,29.983,0,0
"RB Offshore.103","RB",2019-07-01,"2019-07-01 22:00:00","Offshore",NA,29.983,0,0
"RB Offshore.104","RB",2019-07-01,"2019-07-01 23:00:00","Offshore",NA,29.967,0,0
"RB Offshore.105","RB",2019-07-02,"2019-07-02 00:00:00","Offshore",NA,29.967,0,0
"RB Offshore.106","RB",2019-07-02,"2019-07-02 01:00:00","Offshore",NA,29.967,0,0
"RB Offshore.107","RB",2019-07-02,"2019-07-02 02:00:00","Offshore",NA,29.967,0,0
"RB Offshore.108","RB",2019-07-02,"2019-07-02 03:00:00","Offshore",NA,29.983,0,0
"RB Offshore.109","RB",2019-07-02,"2019-07-02 04:00:00","Offshore","LNN",29.983,1,2
"RB Offshore.110","RB",2019-07-02,"2019-07-02 05:00:00","Offshore",NA,29.983,0,0
"RB Offshore.111","RB",2019-07-02,"2019-07-02 06:00:00","Offshore",NA,29.967,0,0
"RB Offshore.112","RB",2019-07-02,"2019-07-02 07:00:00","Offshore",NA,29.967,0,0
"RB Offshore.113","RB",2019-07-02,"2019-07-02 08:00:00","Offshore",NA,29.967,0,0
"RB Offshore.114","RB",2019-07-02,"2019-07-02 09:00:00","Offshore",NA,29.967,0,0
"RB Offshore.115","RB",2019-07-02,"2019-07-02 10:00:00","Offshore",NA,29.983,0,0
"RB Offshore.116","RB",2019-07-02,"2019-07-02 11:00:00","Offshore",NA,29.983,0,0
"RB Offshore.117","RB",2019-07-02,"2019-07-02 12:00:00","Offshore",NA,29.967,0,0
"RB Offshore.118","RB",2019-07-02,"2019-07-02 13:00:00","Offshore",NA,29.967,0,0
"RB Offshore.119","RB",2019-07-02,"2019-07-02 14:00:00","Offshore",NA,29.967,0,0
"RB Offshore.120","RB",2019-07-02,"2019-07-02 15:00:00","Offshore","LNN",29.967,1,2
"RB Offshore.121","RB",2019-07-02,"2019-07-02 16:00:00","Offshore",NA,29.967,0,0
"RB Offshore.122","RB",2019-07-02,"2019-07-02 17:00:00","Offshore",NA,29.983,0,0
"RB Offshore.123","RB",2019-07-02,"2019-07-02 18:00:00","Offshore",NA,29.967,0,0
"RB Offshore.124","RB",2019-07-02,"2019-07-02 19:00:00","Offshore",NA,29.967,0,0
"RB Offshore.125","RB",2019-07-02,"2019-07-02 20:00:00","Offshore",NA,29.967,0,0
"RB Offshore.126","RB",2019-07-02,"2019-07-02 21:00:00","Offshore",NA,29.967,0,0
"RB Offshore.127","RB",2019-07-02,"2019-07-02 22:00:00","Offshore",NA,29.983,0,0
"RB Offshore.128","RB",2019-07-02,"2019-07-02 23:00:00","Offshore",NA,29.983,0,0
"RB Offshore.129","RB",2019-07-03,"2019-07-03 00:00:00","Offshore",NA,29.983,0,0
"RB Offshore.130","RB",2019-07-03,"2019-07-03 01:00:00","Offshore",NA,29.967,0,0
"RB Offshore.131","RB",2019-07-03,"2019-07-03 02:00:00","Offshore",NA,29.967,0,0
"RB Offshore.132","RB",2019-07-03,"2019-07-03 03:00:00","Offshore",NA,29.967,0,0
"RB Offshore.133","RB",2019-07-03,"2019-07-03 04:00:00","Offshore",NA,29.967,0,0
"RB Offshore.134","RB",2019-07-03,"2019-07-03 05:00:00","Offshore",NA,29.983,0,0
"RB Offshore.135","RB",2019-07-03,"2019-07-03 06:00:00","Offshore",NA,29.983,0,0
"RB Offshore.136","RB",2019-07-03,"2019-07-03 07:00:00","Offshore","LNN",29.983,1,2
"RB Offshore.137","RB",2019-07-03,"2019-07-03 08:00:00","Offshore",NA,29.983,0,0
"RB Offshore.138","RB",2019-07-03,"2019-07-03 09:00:00","Offshore","LNN",29.967,1,2
"RB Offshore.139","RB",2019-07-03,"2019-07-03 10:00:00","Offshore",NA,29.967,0,0
"RB Offshore.140","RB",2019-07-03,"2019-07-03 11:00:00","Offshore",NA,29.967,0,0
"RB Offshore.141","RB",2019-07-03,"2019-07-03 12:00:00","Offshore",NA,29.983,0,0
"RB Offshore.142","RB",2019-07-03,"2019-07-03 13:00:00","Offshore",NA,29.983,0,0
"RB Offshore.143","RB",2019-07-03,"2019-07-03 14:00:00","Offshore",NA,29.967,0,0
"RB Offshore.144","RB",2019-07-03,"2019-07-03 15:00:00","Offshore",NA,29.967,0,0
"RB Offshore.145","RB",2019-07-03,"2019-07-03 16:00:00","Offshore",NA,29.967,0,0
"RB Offshore.146","RB",2019-07-03,"2019-07-03 17:00:00","Offshore",NA,29.967,0,0
"RB Offshore.147","RB",2019-07-03,"2019-07-03 18:00:00","Offshore",NA,29.983,0,0
"RB Offshore.148","RB",2019-07-03,"2019-07-03 19:00:00","Offshore",NA,29.983,0,0
"RB Offshore.149","RB",2019-07-03,"2019-07-03 20:00:00","Offshore",NA,29.967,0,0
"RB Offshore.150","RB",2019-07-03,"2019-07-03 21:00:00","Offshore",NA,29.967,0,0
"RB Offshore.151","RB",2019-07-03,"2019-07-03 22:00:00","Offshore",NA,29.967,0,0
"RB Offshore.152","RB",2019-07-03,"2019-07-03 23:00:00","Offshore",NA,29.967,0,0
"RB Offshore.153","RB",2019-07-04,"2019-07-04 00:00:00","Offshore",NA,29.967,0,0
"RB Offshore.154","RB",2019-07-04,"2019-07-04 01:00:00","Offshore",NA,29.983,0,0
"RB Offshore.155","RB",2019-07-04,"2019-07-04 02:00:00","Offshore",NA,29.967,0,0
"RB Offshore.156","RB",2019-07-04,"2019-07-04 03:00:00","Offshore",NA,29.967,0,0
"RB Offshore.157","RB",2019-07-04,"2019-07-04 04:00:00","Offshore",NA,29.967,0,0
"RB Offshore.158","RB",2019-07-04,"2019-07-04 05:00:00","Offshore",NA,29.967,0,0
"RB Offshore.159","RB",2019-07-04,"2019-07-04 06:00:00","Offshore","KJW",29.967,1,2
"RB Offshore.160","RB",2019-07-04,"2019-07-04 07:00:00","Offshore",NA,29.983,0,0
"RB Offshore.161","RB",2019-07-04,"2019-07-04 08:00:00","Offshore",NA,29.983,0,0
"RB Offshore.162","RB",2019-07-04,"2019-07-04 09:00:00","Offshore","KJW",29.983,1,2
"RB Offshore.163","RB",2019-07-04,"2019-07-04 10:00:00","Offshore",NA,29.967,0,0
"RB Offshore.164","RB",2019-07-04,"2019-07-04 11:00:00","Offshore",NA,29.967,0,0
"RB Offshore.165","RB",2019-07-04,"2019-07-04 12:00:00","Offshore",NA,29.967,0,0
"RB Offshore.166","RB",2019-07-04,"2019-07-04 13:00:00","Offshore",NA,29.967,0,0
"RB Offshore.167","RB",2019-07-04,"2019-07-04 14:00:00","Offshore",NA,NA,NA,0.161118464367843
"RB Offshore.168","RB",2019-07-04,"2019-07-04 15:00:00","Offshore",NA,29.983,0,0
"RB Offshore.169","RB",2019-07-04,"2019-07-04 16:00:00","Offshore",NA,29.967,0,0
"RB Offshore.170","RB",2019-07-04,"2019-07-04 17:00:00","Offshore",NA,29.967,0,0
"RB Offshore.171","RB",2019-07-04,"2019-07-04 18:00:00","Offshore",NA,29.967,0,0
"RB Offshore.172","RB",2019-07-04,"2019-07-04 19:00:00","Offshore",NA,29.967,0,0
"RB Offshore.173","RB",2019-07-04,"2019-07-04 20:00:00","Offshore","KJW",29.983,1,2
"RB Offshore.174","RB",2019-07-04,"2019-07-04 21:00:00","Offshore","KJW",29.983,-1,-2
"RB Offshore.175","RB",2019-07-04,"2019-07-04 22:00:00","Offshore",NA,29.983,0,0
"RB Offshore.176","RB",2019-07-04,"2019-07-04 23:00:00","Offshore",NA,29.967,0,0
"RB Offshore.177","RB",2019-07-05,"2019-07-05 00:00:00","Offshore",NA,29.967,0,0
"RB Offshore.178","RB",2019-07-05,"2019-07-05 01:00:00","Offshore",NA,29.967,0,0
"RB Offshore.179","RB",2019-07-05,"2019-07-05 02:00:00","Offshore",NA,29.967,0,0
"RB Offshore.180","RB",2019-07-05,"2019-07-05 03:00:00","Offshore",NA,29.983,0,0
"RB Offshore.181","RB",2019-07-05,"2019-07-05 04:00:00","Offshore",NA,29.983,0,0
"RB Offshore.182","RB",2019-07-05,"2019-07-05 05:00:00","Offshore",NA,29.967,0,0
"RB Offshore.183","RB",2019-07-05,"2019-07-05 06:00:00","Offshore",NA,29.967,0,0
"RB Offshore.184","RB",2019-07-05,"2019-07-05 07:00:00","Offshore",NA,29.967,0,0
"RB Offshore.185","RB",2019-07-05,"2019-07-05 08:00:00","Offshore",NA,29.967,0,0
"RB Offshore.186","RB",2019-07-05,"2019-07-05 09:00:00","Offshore",NA,29.983,0,0
"RB Offshore.187","RB",2019-07-05,"2019-07-05 10:00:00","Offshore",NA,29.983,0,0
"RB Offshore.188","RB",2019-07-05,"2019-07-05 11:00:00","Offshore",NA,29.983,0,0
"RB Offshore.189","RB",2019-07-05,"2019-07-05 12:00:00","Offshore",NA,29.967,0,0
"RB Offshore.190","RB",2019-07-05,"2019-07-05 13:00:00","Offshore",NA,29.967,0,0
"RB Offshore.191","RB",2019-07-05,"2019-07-05 14:00:00","Offshore",NA,29.967,0,0
"RB Offshore.192","RB",2019-07-05,"2019-07-05 15:00:00","Offshore",NA,29.983,0,0
"RB Offshore.193","RB",2019-07-05,"2019-07-05 16:00:00","Offshore",NA,29.983,0,0
"RB Offshore.194","RB",2019-07-05,"2019-07-05 17:00:00","Offshore",NA,NA,NA,0.187012503284103
"RB Offshore.195","RB",2019-07-05,"2019-07-05 18:00:00","Offshore",NA,NA,NA,0.187971541762483
"RB Offshore.196","RB",2019-07-05,"2019-07-05 19:00:00","Offshore",NA,NA,NA,0.188930580240863
"RB Offshore.197","RB",2019-07-05,"2019-07-05 20:00:00","Offshore","LNN",29.983,1,2
"RB Offshore.198","RB",2019-07-05,"2019-07-05 21:00:00","Offshore",NA,29.983,0,0
"RB Offshore.199","RB",2019-07-05,"2019-07-05 22:00:00","Offshore",NA,29.967,0,0
"RB Offshore.200","RB",2019-07-05,"2019-07-05 23:00:00","Offshore",NA,29.967,0,0
"RB Offshore.201","RB",2019-07-06,"2019-07-06 00:00:00","Offshore",NA,29.967,0,0
"RB Offshore.202","RB",2019-07-06,"2019-07-06 01:00:00","Offshore",NA,29.967,0,0
"RB Offshore.203","RB",2019-07-06,"2019-07-06 02:00:00","Offshore",NA,29.967,0,0
"RB Offshore.204","RB",2019-07-06,"2019-07-06 03:00:00","Offshore",NA,29.983,0,0
"RB Offshore.205","RB",2019-07-06,"2019-07-06 04:00:00","Offshore",NA,29.95,0,0
"RB Offshore.206","RB",2019-07-06,"2019-07-06 05:00:00","Offshore",NA,29.967,0,0
"RB Offshore.207","RB",2019-07-06,"2019-07-06 06:00:00","Offshore",NA,29.967,0,0
"RB Offshore.208","RB",2019-07-06,"2019-07-06 07:00:00","Offshore",NA,29.967,0,0
"RB Offshore.209","RB",2019-07-06,"2019-07-06 08:00:00","Offshore",NA,29.967,0,0
"RB Offshore.210","RB",2019-07-06,"2019-07-06 09:00:00","Offshore",NA,11.217,0,0
"RB Offshore.211","RB",2019-07-06,"2019-07-06 10:00:00","Offshore",NA,29.967,0,0
"RB Offshore.212","RB",2019-07-06,"2019-07-06 11:00:00","Offshore",NA,29.967,0,0
"RB Offshore.213","RB",2019-07-06,"2019-07-06 12:00:00","Offshore","KJW",20.683,1,2
"RB Offshore.214","RB",2019-07-06,"2019-07-06 13:00:00","Offshore",NA,12.15,0,0
"RB Offshore.215","RB",2019-07-06,"2019-07-06 14:00:00","Offshore",NA,NA,NA,0.207152311330084
"RB Offshore.216","RB",2019-07-06,"2019-07-06 15:00:00","Offshore",NA,NA,NA,0.208111349808464
"RB Offshore.217","RB",2019-07-06,"2019-07-06 16:00:00","Offshore",NA,NA,NA,0.209070388286844
"RB Offshore.218","RB",2019-07-06,"2019-07-06 17:00:00","Offshore",NA,NA,NA,0.210029426765224
"RB Offshore.219","RB",2019-07-06,"2019-07-06 18:00:00","Offshore",NA,NA,NA,0.210988465243604
"RB Offshore.220","RB",2019-07-06,"2019-07-06 19:00:00","Offshore",NA,NA,NA,0.211947503721984
"RB Offshore.221","RB",2019-07-06,"2019-07-06 20:00:00","Offshore",NA,NA,NA,0.212906542200364
"RB Offshore.222","RB",2019-07-06,"2019-07-06 21:00:00","Offshore",NA,NA,NA,0.213865580678744
"RB Offshore.223","RB",2019-07-06,"2019-07-06 22:00:00","Offshore",NA,NA,NA,0.214824619157124
"RB Offshore.224","RB",2019-07-06,"2019-07-06 23:00:00","Offshore",NA,NA,NA,0.215783657635504
"RB Offshore.225","RB",2019-07-07,"2019-07-07 00:00:00","Offshore",NA,NA,NA,0.216742696113884
"RB Offshore.226","RB",2019-07-07,"2019-07-07 01:00:00","Offshore",NA,NA,NA,0.217701734592264
"RB Offshore.227","RB",2019-07-07,"2019-07-07 02:00:00","Offshore",NA,NA,NA,0.218660773070644
"RB Offshore.228","RB",2019-07-07,"2019-07-07 03:00:00","Offshore",NA,NA,NA,0.219619811549024
"RB Offshore.229","RB",2019-07-07,"2019-07-07 04:00:00","Offshore",NA,NA,NA,0.220578850027404
"RB Offshore.230","RB",2019-07-07,"2019-07-07 05:00:00","Offshore",NA,NA,NA,0.221537888505784
"RB Offshore.231","RB",2019-07-07,"2019-07-07 06:00:00","Offshore",NA,NA,NA,0.222496926984164
