Version = 2.0
File Name = Y:/LB_ARIS_Files/ARIS_2019_07_03/Porcupine_LB_2019-07-03_023000.aris
Total Number Of Marks = 2
Total Time = 29.967 minutes
Date = 07/02/2019
Start Time = 19:30:08

Sample	Ping	Time	Range	Amplitude	XAngle	YAngle	Direction	Length	Area	Operator
221	7055	19.771	 24.88	13.484	 1.12	 0.00	0.000	 0.702	  0.00	LNN
221	7059	19.783	 24.87	 3.267	-2.40	 0.00	1.000	 0.000	  0.00	LNN
