Version = 2.0
File Name = Y:/LB_ARIS_Files/ARIS_2019_07_06/Porcupine_LB_2019-07-06_003000.aris
Total Number Of Marks = 0
Total Time = 29.983 minutes
Date = 07/05/2019
Start Time = 17:30:01

Sample	Ping	Time	Range	Amplitude	XAngle	YAngle	Direction	Length	Area	Operator
