Version = 2.0
File Name = Y:/LB_ARIS_Files/ARIS_2019_07_02/Porcupine_LB_2019-07-02_130000.aris
Total Number Of Marks = 1
Total Time = 29.967 minutes
Date = 07/02/2019
Start Time = 06:00:06

Sample	Ping	Time	Range	Amplitude	XAngle	YAngle	Direction	Length	Area	Operator
1134	10029	27.277	  9.50	 5.009	 0.00	 0.00	-1.000	 0.000	  0.00	LNN
