Version = 2.0
File Name = Y:/LB_ARIS_Files/ARIS_2019_07_03/Porcupine_LB_2019-07-03_063000.aris
Total Number Of Marks = 0
Total Time = 29.983 minutes
Date = 07/02/2019
Start Time = 23:30:08

Sample	Ping	Time	Range	Amplitude	XAngle	YAngle	Direction	Length	Area	Operator
