Version = 2.0
File Name = Y:/LB_ARIS_Files/ARIS_2019_07_02/Porcupine_LB_2019-07-02_003000.aris
Total Number Of Marks = 0
Total Time = 29.983 minutes
Date = 07/01/2019
Start Time = 17:30:04

Sample	Ping	Time	Range	Amplitude	XAngle	YAngle	Direction	Length	Area	Operator
