Version = 2.0
File Name = Y:/LB_ARIS_Files/ARIS_2019_07_08/Porcupine_LB_2019-07-08_190000.aris
Total Number Of Marks = 0
Total Time = 29.983 minutes
Date = 07/08/2019
Start Time = 12:00:04

Sample	Ping	Time	Range	Amplitude	XAngle	YAngle	Direction	Length	Area	Operator
