Version = 2.0
File Name = Y:/LB_ARIS_Files/ARIS_2019_07_06/Porcupine_LB_2019-07-06_095300.aris
Total Number Of Marks = 0
Total Time = 6.967 minutes
Date = 07/06/2019
Start Time = 02:53:01

Sample	Ping	Time	Range	Amplitude	XAngle	YAngle	Direction	Length	Area	Operator
