Version = 2.0
File Name = Y:/LB_ARIS_Files/ARIS_2019_07_07/Porcupine_LB_2019-07-07_060000.aris
Total Number Of Marks = 2
Total Time = 29.983 minutes
Date = 07/06/2019
Start Time = 23:00:02

Sample	Ping	Time	Range	Amplitude	XAngle	YAngle	Direction	Length	Area	Operator
223	7058	10.217	  6.99	-13.071	 1.20	 0.00	1.000	 0.000	  0.00	LNN
215	7055	10.213	  6.82	-3.397	 3.91	 0.00	0.000	 0.775	  0.00	LNN
