Version = 2.0
File Name = Y:/LB_ARIS_Files/ARIS_2019_07_01/Porcupine_LB_2019-07-01_210000.aris
Total Number Of Marks = 0
Total Time = 29.967 minutes
Date = 07/01/2019
Start Time = 14:00:04

Sample	Ping	Time	Range	Amplitude	XAngle	YAngle	Direction	Length	Area	Operator
