Version = 2.0
File Name = Y:/LB_ARIS_Files/ARIS_2019_07_07/Porcupine_LB_2019-07-07_030000.aris
Total Number Of Marks = 2
Total Time = 29.983 minutes
Date = 07/06/2019
Start Time = 20:00:02

Sample	Ping	Time	Range	Amplitude	XAngle	YAngle	Direction	Length	Area	Operator
96	5669	 8.213	  4.20	-30.958	 3.82	 0.00	0.000	 0.576	  0.00	LNN
99	5671	 8.216	  4.25	11.469	 1.20	 0.00	1.000	 0.000	  0.00	LNN
